{
    "urls": [
        {

            "url": "https://ghp.ci/https://raw.githubusercontent.com/hero1898/hero1898.github.io/main/px.json",

            "name": "🐹PX云盘🐹"

        },
        {


            "url": "https://gitlab.com/hero1898/DSZB/-/raw/main/pp.json",

            "name": "🐹PX影视🐹"

        },
        {

    	    "url": "https://gitlab.com/hero1898/DSZB/-/raw/main/json/ncdjaj.json",

    	    "name": "⛄大杂烩⛄"

        },
        {

    	    "url": "https://gitlab.com/hero1898/DSZB/-/raw/main/Tongyong.json",

    	    "name": "🐼鸟叔🐼"

        },
        {

            "url": "https://gitlab.com/hero1898/DSZB/-/raw/main/json/hanXC.json",

            "name": "💎胜寒线路💎"

        },
        {

            "url": "http://u6v.cn/6vX55k",

            "name": "😻老猫迷😻"

        },
        {

            "url": "http://我不是.摸鱼儿.top",

            "name": "🚀摸鱼儿4K🚀"

        },
        {

            "url": "http://肥猫.com",

            "name": "🚀肥猫🚀"

        },  
        {

            "url": "https://tv.youdu.fan:666/PG/",

            "name": "🚀PG线路🚀"

        },  
        {

            "url": "https://raw.bgithub.xyz/xyq254245/xyqonlinerule/main/XYQTVBox.json",

            "name": "🚀香雅情🚀"

        },
        {

            "url": "http://清清.摸鱼儿.top",

            "name": "🚀小鱼干影视🚀"

        },
        {

            "url": "https://gitlab.com/hero1898/DSZB/-/raw/main/json/sgj.json",

            "name": "🐹时光机🐹"

        },
        {

            "url": "https://raw.bgithub.xyz/tangchunwei/iptv-list/32d02a1800381ccea856c933dc9b8a38d9e2f9d1/vbox%E9%85%8D%E7%BD%AE/%F0%9F%90%B9%E6%BD%87%E6%B4%92%E7%BA%BF%E8%B7%AF.json",

            "name": "🐹潇洒线路🐹"

        },
        {

            "url": "http://tv.nxog.top/m/111.php?ou=公众号欧歌app&mz=index&jar=index&123&b=欧歌",

            "name": "📢欧歌家庭线路📢"

        },
        {

            "url": "http://tv.nxog.top/m/111.php?ou=公众号欧歌app&mz=all&jar=all&b=欧歌",

            "name": "💚阿里4k-token线路💚"

        },
        {

            "url": "https://download.kstore.space/download/2883/nzk/nzk0722.json",

            "name": "💖魔改影视仓💖"

        },
        {

            "url": "http://rihou.cc:88/荷城茶秀",

            "name": "🐹荷城茶秀🐹"

        },              
        {

            "url": "https://raw.bgithub.xyz/qist/tvbox/22e0bfad6d29a922c909e0ee4a3904d8de6d2f6b/js.json",

            "name": "😈JS线路😈"

        },
        {

            "url": "https://毒盒.com/tv",

            "name": "💎独盒影视💎"

        }
    ]
}
