畅看,#genre#
Q群699165891,https://alimov2.a.kwimgs.com/upic/2023/04/22/17/BMjAyMzA0MjIxNzI1MzZfMjgzNjA2ODc5N18xMDEyMzc2NjE3NDlfMF8z_b_B97021f3592e1779257f420d55885ac3a.mp4?clientCacheKey=3x73a4vbk8wzt2q_b.mp4&tt=b&di=b7d53c28&bp=10000

about,#genre#
Q群699165891,http://tv.nxog.top/m/404/xjj.php
进入更新,http://tv.nxog.top/m/404/xjj.php
名额有限,http://tv.nxog.top/m/404/xjj.php

CCTV,#genre#
CCTV1,http://dbiptv.sn.chinamobile.com/PLTV/88888890/224/3221226231/index.m3u8
CCTV2,http://dbiptv.sn.chinamobile.com/PLTV/88888890/224/3221226195/index.m3u8
CCTV2,http://dbiptv.sn.chinamobile.com/PLTV/88888890/224/3221226224/index.m3u8
CCTV3,http://39.134.66.110/PLTV/88888888/224/3221225799/index.m3u8
CCTV4,http://dbiptv.sn.chinamobile.com/PLTV/88888890/224/3221226191/index.m3u8
CCTV4,http://dbiptv.sn.chinamobile.com/PLTV/88888890/224/3221226223/index.m3u8
CCTV5,http://39.134.66.110/PLTV/88888888/224/3221225818/index.m3u8
CCTV5+,http://dbiptv.sn.chinamobile.com/PLTV/88888890/224/3221226221/index.m3u8
CCTV6,http://39.134.66.110/PLTV/88888888/224/3221225814/index.m3u8
CCTV7,http://dbiptv.sn.chinamobile.com/PLTV/88888890/224/3221226192/index.m3u8
CCTV8,http://39.134.66.110/PLTV/88888888/224/3221225795/index.m3u8
CCTV9,http://dbiptv.sn.chinamobile.com/PLTV/88888890/224/3221226197/index.m3u8
CCTV10,http://dbiptv.sn.chinamobile.com/PLTV/88888890/224/3221226189/index.m3u8
CCTV11,http://219.140.56.34:3333/tsfile/live/1011_1.m3u8
CCTV12,http://dbiptv.sn.chinamobile.com/PLTV/88888890/224/3221226190/index.m3u8
CCTV13,http://39.134.67.99/PLTV/88888888/224/3221225812/index.m3u8
CCTV13,http://39.135.138.60:18890/PLTV/88888910/224/3221225638/index.m3u8
CCTV14,http://39.134.66.66/PLTV/88888888/224/3221225674/index.m3u8
CCTV15,http://39.135.138.60:18890/PLTV/88888910/224/3221225641/index.m3u8
CCTV16,http://39.135.138.60:18890/TVOD/88888910/224/3221226230/index.m3u8
CCTV16,http://39.135.138.60:18890/TVOD/88888910/224/3221226233/index.m3u8
CCTV11,http://dbiptv.sn.chinamobile.com/PLTV/88888890/224/3221226240/index.m3u8
CCTV13,http://dbiptv.sn.chinamobile.com/PLTV/88888890/224/3221226233/index.m3u8
CCTV14,http://dbiptv.sn.chinamobile.com/PLTV/88888890/224/3221226193/index.m3u8
CCTV17,http://dbiptv.sn.chinamobile.com/PLTV/88888890/224/3221226198/index.m3u8
CCTV1,http://39.134.66.110/PLTV/88888888/224/3221225816/index.m3u8
CCTV5+,http://39.134.66.110/PLTV/88888888/224/3221225507/index.m3u8
CCTV7,http://39.134.66.110/PLTV/88888888/224/3221225671/index.m3u8
CCTV9,http://39.134.66.110/PLTV/88888888/224/3221225676/index.m3u8
CCTV10,http://39.134.66.110/PLTV/88888888/224/3221225677/index.m3u8
CCTV12,http://39.134.66.110/PLTV/88888888/224/3221225669/index.m3u8
CCTV14,http://39.134.66.110/PLTV/88888888/224/3221225674/index.m3u8
CCTV16,http://39.134.66.110/PLTV/88888888/224/3221225893/index.m3u8
CCTV17,http://39.134.66.110/PLTV/88888888/224/3221225708/index.m3u8
CCTV1,http://39.134.66.48/PLTV/88888888/224/3221225816/index.m3u8
CCTV1,http://39.134.67.226/PLTV/88888888/224/3221225816/index.m3u8
CCTV1,http://39.134.65.179/PLTV/88888888/224/3221225816/index.m3u8
CCTV1,http://39.134.65.181/PLTV/88888888/224/3221225816/index.m3u8
CCTV3,http://39.134.66.46/PLTV/88888888/224/3221225799/index.m3u8
CCTV3,http://39.134.67.226/PLTV/88888888/224/3221225799/index.m3u8
CCTV3,http://39.134.65.179/PLTV/88888888/224/3221225799/index.m3u8
CCTV3,http://39.134.65.181/PLTV/88888888/224/3221225799/index.m3u8
CCTV3,http://39.134.65.173/PLTV/88888888/224/3221225799/index.m3u8
CCTV3,http://39.134.65.183/PLTV/88888888/224/3221225799/index.m3u8
CCTV3,http://39.134.65.175/PLTV/88888888/224/3221225799/index.m3u8
CCTV5,http://39.134.67.226/PLTV/88888888/224/3221225818/index.m3u8
CCTV5,http://39.134.65.179/PLTV/88888888/224/3221225818/index.m3u8
CCTV5,http://39.134.65.181/PLTV/88888888/224/3221225818/index.m3u8
CCTV5,http://39.134.65.173/PLTV/88888888/224/3221225818/index.m3u8
CCTV5+,http://39.134.66.66/PLTV/88888888/224/3221225507/index.m3u8
CCTV5+,http://39.134.65.181/PLTV/88888888/224/3221225507/index.m3u8
CCTV5+,http://39.134.65.173/PLTV/88888888/224/3221225507/index.m3u8
CCTV5+,http://39.134.65.183/PLTV/88888888/224/3221225507/index.m3u8
CCTV5+,http://39.134.65.175/PLTV/88888888/224/3221225507/index.m3u8
CCTV6,http://39.134.65.181/PLTV/88888888/224/3221225814/index.m3u8
CCTV6,http://39.134.65.173/PLTV/88888888/224/3221225814/index.m3u8
CCTV6,http://39.134.65.183/PLTV/88888888/224/3221225814/index.m3u8
CCTV6,http://39.134.65.175/PLTV/88888888/224/3221225814/index.m3u8
CCTV6,http://39.134.65.177/PLTV/88888888/224/3221225814/index.m3u8
CCTV7,http://39.134.65.179/PLTV/88888888/224/3221225671/index.m3u8
CCTV7,http://39.134.65.164/PLTV/88888888/224/3221225671/index.m3u8
CCTV7,http://39.134.65.181/PLTV/88888888/224/3221225671/index.m3u8
CCTV7,http://39.134.65.173/PLTV/88888888/224/3221225671/index.m3u8
CCTV7,http://39.134.65.183/PLTV/88888888/224/3221225671/index.m3u8
CCTV7,http://39.134.66.2/PLTV/88888888/224/3221225671/index.m3u8
CCTV8,http://39.134.65.181/PLTV/88888888/224/3221225795/index.m3u8
CCTV8,http://39.134.65.173/PLTV/88888888/224/3221225795/index.m3u8
CCTV8,http://39.134.65.183/PLTV/88888888/224/3221225795/index.m3u8
CCTV8,http://39.134.65.175/PLTV/88888888/224/3221225795/index.m3u8
CCTV8,http://39.134.65.177/PLTV/88888888/224/3221225795/index.m3u8
CCTV9,http://39.134.66.46/PLTV/88888888/224/3221225676/index.m3u8
CCTV9,http://39.134.65.179/PLTV/88888888/224/3221225676/index.m3u8
CCTV9,http://39.134.65.181/PLTV/88888888/224/3221225676/index.m3u8
CCTV9,http://39.134.65.166/PLTV/88888888/224/3221225676/index.m3u8
CCTV9,http://39.134.65.183/PLTV/88888888/224/3221225676/index.m3u8
CCTV9,http://39.134.65.173/PLTV/88888888/224/3221225676/index.m3u8
CCTV10,http://39.134.65.179/PLTV/88888888/224/3221225677/index.m3u8
CCTV10,http://39.134.65.164/PLTV/88888888/224/3221225677/index.m3u8
CCTV10,http://39.134.65.166/PLTV/88888888/224/3221225677/index.m3u8
CCTV10,http://39.134.65.181/PLTV/88888888/224/3221225677/index.m3u8
CCTV10,http://39.134.65.183/PLTV/88888888/224/3221225677/index.m3u8
CCTV10,http://39.134.66.66/PLTV/88888888/224/3221225677/index.m3u8
CCTV12,http://39.134.66.66/PLTV/88888888/224/3221225669/index.m3u8
CCTV12,http://39.134.65.179/PLTV/88888888/224/3221225669/index.m3u8
CCTV12,http://39.134.65.164/PLTV/88888888/224/3221225669/index.m3u8
CCTV12,http://39.134.65.181/PLTV/88888888/224/3221225669/index.m3u8
CCTV12,http://39.134.65.166/PLTV/88888888/224/3221225669/index.m3u8
CCTV12,http://39.134.65.173/PLTV/88888888/224/3221225669/index.m3u8
CCTV14,http://39.134.65.179/PLTV/88888888/224/3221225674/index.m3u8
CCTV14,http://39.134.65.164/PLTV/88888888/224/3221225674/index.m3u8
CCTV14,http://39.134.65.181/PLTV/88888888/224/3221225674/index.m3u8
CCTV14,http://39.134.65.183/PLTV/88888888/224/3221225674/index.m3u8
CCTV14,http://39.134.65.173/PLTV/88888888/224/3221225674/index.m3u8
CCTV17,http://39.134.66.46/PLTV/88888888/224/3221225708/index.m3u8
CCTV17,http://39.134.65.181/PLTV/88888888/224/3221225708/index.m3u8
CCTV17,http://39.134.65.183/PLTV/88888888/224/3221225708/index.m3u8
CCTV2,http://219.140.56.34:3333/tsfile/live/0002_1.m3u8
CCTV4,http://219.140.56.34:3333/tsfile/live/1004_1.m3u8
CETV3,http://dbiptv.sn.chinamobile.com/PLTV/88888890/224/3221226226/index.m3u8
CETV4,http://dbiptv.sn.chinamobile.com/PLTV/88888890/224/3221226225/index.m3u8
风云剧场,http://42.176.185.28:9901/tsfile/live/1031_1.m3u8
风云音乐,http://42.176.185.28:9901/tsfile/live/1024_1.m3u8
女性时尚,http://dbiptv.sn.chinamobile.com/PLTV/88888890/224/3221226237/index.m3u8
发现之旅,http://dbiptv.sn.chinamobile.com/PLTV/88888890/224/3221226235/index.m3u8
老故事,http://dbiptv.sn.chinamobile.com/PLTV/88888890/224/3221226236/index.m3u8
卫视,#genre#
安徽卫视,http://39.134.66.110/PLTV/88888888/224/3221225925/index.m3u8
北京卫视,http://39.134.66.110/PLTV/88888888/224/3221225931/index.m3u8
东方卫视,http://39.134.66.110/PLTV/88888888/224/3221225942/index.m3u8
东南卫视,http://39.134.66.110/PLTV/88888888/224/3221225950/index.m3u8
广东卫视,http://39.134.66.110/PLTV/88888888/224/3221225966/index.m3u8
海南卫视,http://39.134.66.110/PLTV/88888888/224/3221225978/index.m3u8
河北卫视,http://39.134.66.110/PLTV/88888888/224/3221225961/index.m3u8
河南卫视,http://39.134.66.110/PLTV/88888888/224/3221225988/index.m3u8
黑龙江卫视,http://39.134.66.110/PLTV/88888888/224/3221225985/index.m3u8
湖北卫视,http://39.134.66.110/PLTV/88888888/224/3221225975/index.m3u8
湖南卫视,http://39.134.66.110/PLTV/88888888/224/3221225977/index.m3u8
吉林卫视,http://39.134.66.110/PLTV/88888888/224/3221225981/index.m3u8
江苏卫视,http://39.134.66.110/PLTV/88888888/224/3221225938/index.m3u8
江西卫视,http://39.134.66.110/PLTV/88888888/224/3221225935/index.m3u8
山东卫视,http://39.134.66.110/PLTV/88888888/224/3221225952/index.m3u8
深圳卫视,http://39.134.66.110/PLTV/88888888/224/3221225974/index.m3u8
四川卫视,http://39.134.66.110/PLTV/88888888/224/3221225970/index.m3u8
天津卫视,http://39.134.66.110/PLTV/88888888/224/3221225972/index.m3u8
浙江卫视,http://39.134.66.110/PLTV/88888888/224/3221225959/index.m3u8
重庆卫视,http://39.134.66.110/PLTV/88888888/224/3221225963/index.m3u8
湖南卫视,http://39.134.65.166/PLTV/88888888/224/3221225506/index.m3u8
湖南卫视,http://39.134.65.181/PLTV/88888888/224/3221225506/index.m3u8
江苏卫视,http://39.134.65.181/PLTV/88888888/224/3221225503/index.m3u8
浙江卫视,http://39.134.65.179/PLTV/88888888/224/3221225514/index.m3u8
浙江卫视,http://39.134.65.173/PLTV/88888888/224/3221225514/index.m3u8
浙江卫视,http://39.134.65.175/PLTV/88888888/224/3221225514/index.m3u8
东方卫视,http://39.134.65.179/PLTV/88888888/224/3221225672/index.m3u8
东方卫视,http://39.134.65.164/PLTV/88888888/224/3221225672/index.m3u8
东方卫视,http://39.134.65.173/PLTV/88888888/224/3221225672/index.m3u8
东方卫视,http://39.134.65.175/PLTV/88888888/224/3221225672/index.m3u8
深圳卫视,http://39.134.65.164/PLTV/88888888/224/3221225668/index.m3u8
深圳卫视,http://39.134.65.166/PLTV/88888888/224/3221225668/index.m3u8
北京卫视,http://39.134.65.179/PLTV/88888888/224/3221225678/index.m3u8
北京卫视,http://39.134.65.164/PLTV/88888888/224/3221225678/index.m3u8
北京卫视,http://39.134.65.166/PLTV/88888888/224/3221225678/index.m3u8
天津卫视,http://39.134.65.166/PLTV/88888888/224/3221225665/index.m3u8
天津卫视,http://39.134.66.66/PLTV/88888888/224/3221225665/index.m3u8
湖北卫视,http://39.134.65.164/PLTV/88888888/224/3221225569/index.m3u8
湖北卫视,http://39.134.66.66/PLTV/88888888/224/3221225569/index.m3u8
贵州卫视,http://39.134.65.149/PLTV/88888888/224/3221225974/index.m3u8
浙江卫视,http://39.134.65.208/PLTV/88888888/224/3221225514/index.m3u8
浙江卫视,http://39.134.66.2/PLTV/88888888/224/3221225514/index.m3u8
江苏卫视,http://39.134.65.208/PLTV/88888888/224/3221225503/index.m3u8
湖南卫视,http://39.134.65.208/PLTV/88888888/224/3221225506/index.m3u8
湖南卫视,http://39.134.66.2/PLTV/88888888/224/3221225506/index.m3u8
东方卫视,http://39.134.65.208/PLTV/88888888/224/3221225672/index.m3u8
湖北卫视,http://dbiptv.sn.chinamobile.com/PLTV/88888890/224/3221226194/index.m3u8
安徽卫视,http://dbiptv.sn.chinamobile.com/PLTV/88888890/224/3221226196/index.m3u8
浙江卫视,http://dbiptv.sn.chinamobile.com/PLTV/88888890/224/3221226199/index.m3u8
江苏卫视,http://dbiptv.sn.chinamobile.com/PLTV/88888890/224/3221226200/index.m3u8
辽宁卫视,http://dbiptv.sn.chinamobile.com/PLTV/88888890/224/3221226201/index.m3u8
辽宁卫视,http://dbiptv.sn.chinamobile.com/PLTV/88888890/224/3221226210/index.m3u8
重庆卫视,http://dbiptv.sn.chinamobile.com/PLTV/88888890/224/3221226202/index.m3u8
安徽卫视,http://dbiptv.sn.chinamobile.com/PLTV/88888890/224/3221226203/index.m3u8
天津卫视,http://dbiptv.sn.chinamobile.com/PLTV/88888890/224/3221226204/index.m3u8
深圳卫视,http://dbiptv.sn.chinamobile.com/PLTV/88888890/224/3221226205/index.m3u8
湖北卫视,http://dbiptv.sn.chinamobile.com/PLTV/88888890/224/3221226206/index.m3u8
山东卫视,http://dbiptv.sn.chinamobile.com/PLTV/88888890/224/3221226209/index.m3u8
湖南卫视,http://dbiptv.sn.chinamobile.com/PLTV/88888890/224/3221226211/index.m3u8
西藏卫视,http://dbiptv.sn.chinamobile.com/PLTV/88888890/224/3221226212/index.m3u8
兵团卫视,http://dbiptv.sn.chinamobile.com/PLTV/88888890/224/3221226214/index.m3u8
黑龙江卫视,http://dbiptv.sn.chinamobile.com/PLTV/88888890/224/3221226215/index.m3u8
广东卫视,http://dbiptv.sn.chinamobile.com/PLTV/88888890/224/3221226216/index.m3u8
东方卫视,http://dbiptv.sn.chinamobile.com/PLTV/88888890/224/3221226217/index.m3u8
大湾区卫视,http://dbiptv.sn.chinamobile.com/PLTV/88888890/224/3221226218/index.m3u8
厦门卫视,http://dbiptv.sn.chinamobile.com/PLTV/88888890/224/3221226219/index.m3u8
延边卫视,http://dbiptv.sn.chinamobile.com/PLTV/88888890/224/3221226220/index.m3u8
北京卫视,http://dbiptv.sn.chinamobile.com/PLTV/88888890/224/3221226222/index.m3u8
农林卫视,http://dbiptv.sn.chinamobile.com/PLTV/88888890/224/3221226229/index.m3u8
康巴卫视,http://dbiptv.sn.chinamobile.com/PLTV/88888890/224/3221226234/index.m3u8
安多卫视,http://dbiptv.sn.chinamobile.com/PLTV/88888890/224/3221226228/index.m3u8
斗鱼,#genre#
斗鱼电影4K,https://ygbh--xingkongbujian.repl.co/douyu/9249162
斗鱼电影HD1,https://ygbh--xingkongbujian.repl.co/douyu/4246519
斗鱼电影HD2,https://ygbh--xingkongbujian.repl.co/douyu/10240553
斗鱼电影HD3,https://ygbh--xingkongbujian.repl.co/douyu/122402
斗鱼电影HD4,https://ygbh--xingkongbujian.repl.co/douyu/85894
斗鱼电影HD5,https://ygbh--xingkongbujian.repl.co/douyu/263824
斗鱼电影HD6,https://ygbh--xingkongbujian.repl.co/douyu/747764
斗鱼电影HD7,https://ygbh--xingkongbujian.repl.co/douyu/20415
斗鱼电影HD8,https://ygbh--xingkongbujian.repl.co/douyu/8663752
斗鱼电影HD9,https://ygbh--xingkongbujian.repl.co/douyu/323876
斗鱼电影HD10,https://ygbh--xingkongbujian.repl.co/douyu/6140589
斗鱼电影HD11,https://ygbh--xingkongbujian.repl.co/douyu/8770422
斗鱼电影HD12,https://ygbh--xingkongbujian.repl.co/douyu/2436390
斗鱼电影HD13,https://ygbh--xingkongbujian.repl.co/douyu/218859
斗鱼电影HD14,https://ygbh--xingkongbujian.repl.co/douyu/36337
斗鱼电影HD15,https://ygbh--xingkongbujian.repl.co/douyu/413573
斗鱼电影HD16,https://ygbh--xingkongbujian.repl.co/douyu/1504768
斗鱼电影HD17,https://ygbh--xingkongbujian.repl.co/douyu/3637726
斗鱼电影HD18,https://ygbh--xingkongbujian.repl.co/douyu/9292492
斗鱼电影HD19,https://ygbh--xingkongbujian.repl.co/douyu/3637765rrt97
斗鱼电影HD20,https://ygbh--xingkongbujian.repl.co/douyu/10395991
斗鱼电影HD21,https://ygbh--xingkongbujian.repl.co/douyu/10395986
斗鱼电影HD22,https://ygbh--xingkongbujian.repl.co/douyu/252802
斗鱼电影HD24,https://ygbh--xingkongbujian.repl.co/douyu/315131
斗鱼电影HD25,https://ygbh--xingkongbujian.repl.co/douyu/8945323
斗鱼电影HD26,https://ygbh--xingkongbujian.repl.co/douyu/2516864
斗鱼电影HD27,https://ygbh--xingkongbujian.repl.co/douyu/248753
斗鱼电影HD28,https://ygbh--xingkongbujian.repl.co/douyu/4332
斗鱼电影HD29,https://ygbh--xingkongbujian.repl.co/douyu/9651304
斗鱼电影HD30,https://ygbh--xingkongbujian.repl.co/douyu/9650887
斗鱼电影HD31,https://ygbh--xingkongbujian.repl.co/douyu/8814650
斗鱼电影HD32,https://ygbh--xingkongbujian.repl.co/douyu/10240510
斗鱼电影HD34,https://ygbh--xingkongbujian.repl.co/douyu/8985415
斗鱼电影HD35,https://ygbh--xingkongbujian.repl.co/douyu/1165374
斗鱼电影HD36,https://ygbh--xingkongbujian.repl.co/douyu/1735337
斗鱼电影HD37,https://ygbh--xingkongbujian.repl.co/douyu/6537888
斗鱼电影HD38,https://ygbh--xingkongbujian.repl.co/douyu/6003761
斗鱼电影HD39,https://ygbh--xingkongbujian.repl.co/douyu/9683979
斗鱼电影HD40,https://ygbh--xingkongbujian.repl.co/douyu/1226741
斗鱼电影HD41,https://ygbh--xingkongbujian.repl.co/douyu/59612
斗鱼电影HD42,https://ygbh--xingkongbujian.repl.co/douyu/925724
斗鱼电影1,https://ygbh--xingkongbujian.repl.co/douyu/5423
斗鱼电影2,https://ygbh--xingkongbujian.repl.co/douyu/2935323
斗鱼电影3,https://ygbh--xingkongbujian.repl.co/douyu/6027991
斗鱼电影4,https://ygbh--xingkongbujian.repl.co/douyu/4105989
斗鱼电影5,https://ygbh--xingkongbujian.repl.co/douyu/6369954
斗鱼电影6,https://ygbh--xingkongbujian.repl.co/douyu/2793084
斗鱼电影7,https://ygbh--xingkongbujian.repl.co/douyu/7494871
斗鱼电影8,https://ygbh--xingkongbujian.repl.co/douyu/8986148
斗鱼电影9,https://ygbh--xingkongbujian.repl.co/douyu/74374
斗鱼电影10,https://ygbh--xingkongbujian.repl.co/douyu/4870914
斗鱼电影11,https://ygbh--xingkongbujian.repl.co/douyu/7305938
斗鱼电影12,https://ygbh--xingkongbujian.repl.co/douyu/310926
斗鱼电影13,https://ygbh--xingkongbujian.repl.co/douyu/9292499
斗鱼电影14,https://ygbh--xingkongbujian.repl.co/douyu/3637778
斗鱼电影15,https://ygbh--xingkongbujian.repl.co/douyu/8603174
斗鱼电影16,https://ygbh--xingkongbujian.repl.co/douyu/96577
斗鱼电影17,https://ygbh--xingkongbujian.repl.co/douyu/4282654
斗鱼电影18,https://ygbh--xingkongbujian.repl.co/douyu/338759
斗鱼电影19,https://ygbh--xingkongbujian.repl.co/douyu/10011042
斗鱼电影20,https://ygbh--xingkongbujian.repl.co/douyu/9275635
斗鱼电影21,https://ygbh--xingkongbujian.repl.co/douyu/5581257
斗鱼电影22,https://ygbh--xingkongbujian.repl.co/douyu/2466104
斗鱼电影23,https://ygbh--xingkongbujian.repl.co/douyu/5129261
斗鱼电影24,https://ygbh--xingkongbujian.repl.co/douyu/9652323
斗鱼电影25,https://ygbh--xingkongbujian.repl.co/douyu/9826611
斗鱼电影26,https://ygbh--xingkongbujian.repl.co/douyu/4505431
斗鱼电影27,https://ygbh--xingkongbujian.repl.co/douyu/7221304
斗鱼电影28,https://ygbh--xingkongbujian.repl.co/douyu/3990812
斗鱼电影29,https://ygbh--xingkongbujian.repl.co/douyu/315457
斗鱼电影30,https://ygbh--xingkongbujian.repl.co/douyu/805235
斗鱼电影31,https://ygbh--xingkongbujian.repl.co/douyu/6655271
斗鱼电影32,https://ygbh--xingkongbujian.repl.co/douyu/7353112
斗鱼电影33,https://ygbh--xingkongbujian.repl.co/douyu/434971
斗鱼电影34,https://ygbh--xingkongbujian.repl.co/douyu/10329300
斗鱼电影35,https://ygbh--xingkongbujian.repl.co/douyu/10298846
斗鱼电影36,https://ygbh--xingkongbujian.repl.co/douyu/3789245
斗鱼电影37,https://ygbh--xingkongbujian.repl.co/douyu/6763930
斗鱼电影38,https://ygbh--xingkongbujian.repl.co/douyu/7136517
斗鱼电影39,https://ygbh--xingkongbujian.repl.co/douyu/8107217
斗鱼电视剧HD1,https://ygbh--xingkongbujian.repl.co/douyu/2838296
斗鱼电视剧HD2,https://ygbh--xingkongbujian.repl.co/douyu/7701735
斗鱼电视剧HD3,https://ygbh--xingkongbujian.repl.co/douyu/7517784
斗鱼电视剧HD4,https://ygbh--xingkongbujian.repl.co/douyu/7489563
斗鱼电视剧HD5,https://ygbh--xingkongbujian.repl.co/douyu/6566658
斗鱼电视剧HD6,https://ygbh--xingkongbujian.repl.co/douyu/431460
斗鱼电视剧HD7,https://ygbh--xingkongbujian.repl.co/douyu/8600645
斗鱼电视剧HD8,https://ygbh--xingkongbujian.repl.co/douyu/7575350
斗鱼电视剧HD10,https://ygbh--xingkongbujian.repl.co/douyu/7644931
斗鱼电视剧HD11,https://ygbh--xingkongbujian.repl.co/douyu/9650860
斗鱼电视剧HD12,https://ygbh--xingkongbujian.repl.co/douyu/9435180
斗鱼电视剧HD13,https://ygbh--xingkongbujian.repl.co/douyu/3756989
斗鱼电视剧HD14,https://ygbh--xingkongbujian.repl.co/douyu/6706214
斗鱼电视剧HD15,https://ygbh--xingkongbujian.repl.co/douyu/6478650
斗鱼电视剧1,https://ygbh--xingkongbujian.repl.co/douyu/299854
斗鱼电视剧2,https://ygbh--xingkongbujian.repl.co/douyu/6899895
斗鱼电视剧3,https://ygbh--xingkongbujian.repl.co/douyu/276200
斗鱼电视剧4,https://ygbh--xingkongbujian.repl.co/douyu/4290711
斗鱼电视剧5,https://ygbh--xingkongbujian.repl.co/douyu/6648727
斗鱼电视剧6,https://ygbh--xingkongbujian.repl.co/douyu/7314294
斗鱼电视剧7,https://ygbh--xingkongbujian.repl.co/douyu/9638983
斗鱼电视剧8,https://ygbh--xingkongbujian.repl.co/douyu/5261342
斗鱼电视剧9,https://ygbh--xingkongbujian.repl.co/douyu/5522351
斗鱼电视剧10,https://ygbh--xingkongbujian.repl.co/douyu/9639508
斗鱼电视剧11,https://ygbh--xingkongbujian.repl.co/douyu/2083382
斗鱼电视剧12,https://ygbh--xingkongbujian.repl.co/douyu/4373285
斗鱼电视剧13,https://ygbh--xingkongbujian.repl.co/douyu/3439096
斗鱼电视剧14,https://ygbh--xingkongbujian.repl.co/douyu/4549169
斗鱼电视剧15,https://ygbh--xingkongbujian.repl.co/douyu/7254536
斗鱼电视剧16,https://ygbh--xingkongbujian.repl.co/douyu/3928r9
斗鱼电视剧17,https://ygbh--xingkongbujian.repl.co/douyu/7270927
斗鱼电视剧18,https://ygbh--xingkongbujian.repl.co/douyu/7116591
斗鱼电视剧19,https://ygbh--xingkongbujian.repl.co/douyu/7459925
斗鱼电视剧20,https://ygbh--xingkongbujian.repl.co/douyu/674441
斗鱼电视剧21,https://ygbh--xingkongbujian.repl.co/douyu/9518204
斗鱼电视剧22,https://ygbh--xingkongbujian.repl.co/douyu/10297898
斗鱼电视剧23,https://ygbh--xingkongbujian.repl.co/douyu/8901218
斗鱼电视剧24,https://ygbh--xingkongbujian.repl.co/douyu/7292330
斗鱼电视剧25,https://ygbh--xingkongbujian.repl.co/douyu/7623292
斗鱼电视剧26,https://ygbh--xingkongbujian.repl.co/douyu/7356023
斗鱼电视剧27,https://ygbh--xingkongbujian.repl.co/douyu/10068957
斗鱼电视剧28,https://ygbh--xingkongbujian.repl.co/douyu/308752
斗鱼电视剧29,https://ygbh--xingkongbujian.repl.co/douyu/3758762
斗鱼动漫HD1,https://ygbh--xingkongbujian.repl.co/douyu/6449849
斗鱼动漫HD2,https://ygbh--xingkongbujian.repl.co/douyu/206858
斗鱼动漫HD3,https://ygbh--xingkongbujian.repl.co/douyu/10394922
斗鱼动漫1,https://ygbh--xingkongbujian.repl.co/douyu/6610883
斗鱼动漫2,https://ygbh--xingkongbujian.repl.co/douyu/1783144
斗鱼动漫3,https://ygbh--xingkongbujian.repl.co/douyu/7190773
斗鱼动漫4,https://ygbh--xingkongbujian.repl.co/douyu/1174353
斗鱼动漫5,https://ygbh--xingkongbujian.repl.co/douyu/7528160
斗鱼动漫6,https://ygbh--xingkongbujian.repl.co/douyu/7888428
斗鱼搞笑HD1,https://ygbh--xingkongbujian.repl.co/douyu/9220456
斗鱼搞笑HD2,https://ygbh--xingkongbujian.repl.co/douyu/9770949
斗鱼搞笑HD3,https://ygbh--xingkongbujian.repl.co/douyu/9067836
斗鱼搞笑HD4,https://ygbh--xingkongbujian.repl.co/douyu/9817729
斗鱼搞笑HD5,https://ygbh--xingkongbujian.repl.co/douyu/8737695
斗鱼搞笑1,https://ygbh--xingkongbujian.repl.co/douyu/10378551
斗鱼搞笑2,https://ygbh--xingkongbujian.repl.co/douyu/9804180
斗鱼搞笑3,https://ygbh--xingkongbujian.repl.co/douyu/2132902
斗鱼影评HD2,https://ygbh--xingkongbujian.repl.co/douyu/10240495
斗鱼影评HD3,https://ygbh--xingkongbujian.repl.co/douyu/9419771
斗鱼影评HD4,https://ygbh--xingkongbujian.repl.co/douyu/4258555
斗鱼影评HD5,https://ygbh--xingkongbujian.repl.co/douyu/8317926
斗鱼影评HD6,https://ygbh--xingkongbujian.repl.co/douyu/10317257
斗鱼影评HD7,https://ygbh--xingkongbujian.repl.co/douyu/8986636
斗鱼影评HD8,https://ygbh--xingkongbujian.repl.co/douyu/9837291
斗鱼影评HD9,https://ygbh--xingkongbujian.repl.co/douyu/297689
斗鱼影评HD10,https://ygbh--xingkongbujian.repl.co/douyu/8651489
斗鱼影评HD11,https://ygbh--xingkongbujian.repl.co/douyu/8656759
斗鱼影评1,https://ygbh--xingkongbujian.repl.co/douyu/9562616
斗鱼影评2,https://ygbh--xingkongbujian.repl.co/douyu/9527700
斗鱼影评3,https://ygbh--xingkongbujian.repl.co/douyu/2758565
斗鱼影评4,https://ygbh--xingkongbujian.repl.co/douyu/9573592
斗鱼美食HD1,https://ygbh--xingkongbujian.repl.co/douyu/2901080
斗鱼美食HD2,https://ygbh--xingkongbujian.repl.co/douyu/8144937
斗鱼科普HD1,https://ygbh--xingkongbujian.repl.co/douyu/9317739
斗鱼科普HD2,https://ygbh--xingkongbujian.repl.co/douyu/9447974
斗鱼科普HD3,https://ygbh--xingkongbujian.repl.co/douyu/9369468
斗鱼科普HD4,https://ygbh--xingkongbujian.repl.co/douyu/9385288
斗鱼科普HD5,https://ygbh--xingkongbujian.repl.co/douyu/8434598
斗鱼科普HD6,https://ygbh--xingkongbujian.repl.co/douyu/7357786
斗鱼科普1,https://ygbh--xingkongbujian.repl.co/douyu/2022306
斗鱼科普2,https://ygbh--xingkongbujian.repl.co/douyu/2172818
斗鱼科普3,https://ygbh--xingkongbujian.repl.co/douyu/3570168
斗鱼科普4,https://ygbh--xingkongbujian.repl.co/douyu/838632
斗鱼科普5,https://ygbh--xingkongbujian.repl.co/douyu/9412981
斗鱼科普6,https://ygbh--xingkongbujian.repl.co/douyu/8667001
斗鱼历史1,https://ygbh--xingkongbujian.repl.co/douyu/9738854
斗鱼历史2,https://ygbh--xingkongbujian.repl.co/douyu/10102281
斗鱼历史3,https://ygbh--xingkongbujian.repl.co/douyu/1330448
斗鱼历史4,https://ygbh--xingkongbujian.repl.co/douyu/227670
斗鱼历史5,https://ygbh--xingkongbujian.repl.co/douyu/2320076
斗鱼历史6,https://ygbh--xingkongbujian.repl.co/douyu/4275776
斗鱼军事1,https://ygbh--xingkongbujian.repl.co/douyu/1877962
斗鱼军事2,https://ygbh--xingkongbujian.repl.co/douyu/9530915
斗鱼体育1,https://ygbh--xingkongbujian.repl.co/douyu/10302182
斗鱼体育2,https://ygbh--xingkongbujian.repl.co/douyu/9170147
斗鱼体育3,https://ygbh--xingkongbujian.repl.co/douyu/9471214
斗鱼说法1,https://ygbh--xingkongbujian.repl.co/douyu/10379308
斗鱼说法2,https://ygbh--xingkongbujian.repl.co/douyu/709710
斗鱼说法3,https://ygbh--xingkongbujian.repl.co/douyu/8805
斗鱼游戏4K1,https://ygbh--xingkongbujian.repl.co/douyu/4147
斗鱼游戏4K2,https://ygbh--xingkongbujian.repl.co/douyu/5832903
斗鱼游戏HD1,https://ygbh--xingkongbujian.repl.co/douyu/5720533
斗鱼游戏HD2,https://ygbh--xingkongbujian.repl.co/douyu/101367
斗鱼游戏HD3,https://ygbh--xingkongbujian.repl.co/douyu/641986
斗鱼游戏HD5,https://ygbh--xingkongbujian.repl.co/douyu/3168536
斗鱼游戏HD6,https://ygbh--xingkongbujian.repl.co/douyu/5524515
斗鱼游戏HD7,https://ygbh--xingkongbujian.repl.co/douyu/10235695
斗鱼游戏HD8,https://ygbh--xingkongbujian.repl.co/douyu/4346416
斗鱼游戏HD9,https://ygbh--xingkongbujian.repl.co/douyu/1080583
斗鱼游戏HD10,https://ygbh--xingkongbujian.repl.co/douyu/9829796
斗鱼游戏HD11,https://ygbh--xingkongbujian.repl.co/douyu/1863767
斗鱼游戏HD12,https://ygbh--xingkongbujian.repl.co/douyu/288016
斗鱼游戏HD14,https://ygbh--xingkongbujian.repl.co/douyu/2947432
斗鱼游戏HD15,https://ygbh--xingkongbujian.repl.co/douyu/9545122
斗鱼游戏HD16,https://ygbh--xingkongbujian.repl.co/douyu/9412634
斗鱼游戏HD17,https://ygbh--xingkongbujian.repl.co/douyu/10208727
斗鱼游戏HD18,https://ygbh--xingkongbujian.repl.co/douyu/582442
斗鱼游戏HD19,https://ygbh--xingkongbujian.repl.co/douyu/10389796
斗鱼游戏HD20,https://ygbh--xingkongbujian.repl.co/douyu/10072325
斗鱼游戏HD21,https://ygbh--xingkongbujian.repl.co/douyu/10608093
斗鱼游戏HD22,https://ygbh--xingkongbujian.repl.co/douyu/6601808
斗鱼游戏HD23,https://ygbh--xingkongbujian.repl.co/douyu/9747078
斗鱼游戏HD24,https://ygbh--xingkongbujian.repl.co/douyu/7929609
斗鱼游戏HD25,https://ygbh--xingkongbujian.repl.co/douyu/2038911
斗鱼游戏HD26,https://ygbh--xingkongbujian.repl.co/douyu/486816
斗鱼游戏HD27,https://ygbh--xingkongbujian.repl.co/douyu/459911
斗鱼游戏HD28,https://ygbh--xingkongbujian.repl.co/douyu/4872710
斗鱼游戏HD29,https://ygbh--xingkongbujian.repl.co/douyu/428250
斗鱼游戏HD30,https://ygbh--xingkongbujian.repl.co/douyu/703747
斗鱼游戏3,https://ygbh--xingkongbujian.repl.co/douyu/2018127
斗鱼游戏4,https://ygbh--xingkongbujian.repl.co/douyu/24422
斗鱼游戏7,https://ygbh--xingkongbujian.repl.co/douyu/65251
斗鱼游戏8,https://ygbh--xingkongbujian.repl.co/douyu/6712395
斗鱼游戏9,https://ygbh--xingkongbujian.repl.co/douyu/693708
斗鱼棋牌1,https://ygbh--xingkongbujian.repl.co/douyu/1227260
斗鱼棋牌2,https://ygbh--xingkongbujian.repl.co/douyu/851040
斗鱼棋牌3,https://ygbh--xingkongbujian.repl.co/douyu/6264482
斗鱼棋牌4,https://ygbh--xingkongbujian.repl.co/douyu/4369877
斗鱼歌舞HD1,https://ygbh--xingkongbujian.repl.co/douyu/6129898
斗鱼歌舞HD2,https://ygbh--xingkongbujian.repl.co/douyu/920891
斗鱼歌舞HD3,https://ygbh--xingkongbujian.repl.co/douyu/5943125
斗鱼歌舞HD4,https://ygbh--xingkongbujian.repl.co/douyu/3763915
斗鱼歌舞HD5,https://ygbh--xingkongbujian.repl.co/douyu/1607787
斗鱼歌舞HD6,https://ygbh--xingkongbujian.repl.co/douyu/549212
斗鱼歌舞HD7,https://ygbh--xingkongbujian.repl.co/douyu/592561
斗鱼歌舞HD8,https://ygbh--xingkongbujian.repl.co/douyu/10386206
斗鱼歌舞HD9,https://ygbh--xingkongbujian.repl.co/douyu/8711854
斗鱼歌舞HD10,https://ygbh--xingkongbujian.repl.co/douyu/87777
斗鱼歌舞HD11,https://ygbh--xingkongbujian.repl.co/douyu/90999
斗鱼歌舞HD12,https://ygbh--xingkongbujian.repl.co/douyu/591657
斗鱼歌舞HD13,https://ygbh--xingkongbujian.repl.co/douyu/1011
斗鱼歌舞1,https://ygbh--xingkongbujian.repl.co/douyu/6266000
斗鱼歌舞2,https://ygbh--xingkongbujian.repl.co/douyu/5628327
斗鱼歌舞3,https://ygbh--xingkongbujian.repl.co/douyu/4582220
斗鱼歌舞4,https://ygbh--xingkongbujian.repl.co/douyu/5103313
斗鱼歌舞5,https://ygbh--xingkongbujian.repl.co/douyu/5746514
斗鱼歌舞6,https://ygbh--xingkongbujian.repl.co/douyu/7771387
斗鱼歌舞7,https://ygbh--xingkongbujian.repl.co/douyu/5367400
斗鱼歌舞8,https://ygbh--xingkongbujian.repl.co/douyu/5278299
斗鱼歌舞9,https://ygbh--xingkongbujian.repl.co/douyu/10118209
斗鱼歌舞10,https://ygbh--xingkongbujian.repl.co/douyu/170426
斗鱼歌舞11,https://ygbh--xingkongbujian.repl.co/douyu/22619
斗鱼歌舞12,https://ygbh--xingkongbujian.repl.co/douyu/5772555
斗鱼歌舞13,https://ygbh--xingkongbujian.repl.co/douyu/6508860
斗鱼歌舞14,https://ygbh--xingkongbujian.repl.co/douyu/92000
斗鱼歌舞15,https://ygbh--xingkongbujian.repl.co/douyu/9837104
斗鱼综艺HD1,https://ygbh--xingkongbujian.repl.co/douyu/131977
斗鱼综艺HD2,https://ygbh--xingkongbujian.repl.co/douyu/7298973
斗鱼综艺HD3,https://ygbh--xingkongbujian.repl.co/douyu/9236042
斗鱼MTV1,https://ygbh--xingkongbujian.repl.co/douyu/231464
斗鱼MTV2,https://ygbh--xingkongbujian.repl.co/douyu/5635000
斗鱼MTV3,https://ygbh--xingkongbujian.repl.co/douyu/17732
斗鱼MTV4,https://ygbh--xingkongbujian.repl.co/douyu/9586235
斗鱼搏击,https://ygbh--xingkongbujian.repl.co/douyu/425809
斗鱼车评,https://ygbh--xingkongbujian.repl.co/douyu/321987
斗鱼读书,https://ygbh--xingkongbujian.repl.co/douyu/11211
斗鱼旅游1,https://ygbh--xingkongbujian.repl.co/douyu/1109218
斗鱼旅游2,https://ygbh--xingkongbujian.repl.co/douyu/6580174
斗鱼收藏,https://ygbh--xingkongbujian.repl.co/douyu/9812765
斗鱼书画1,https://ygbh--xingkongbujian.repl.co/douyu/10633755
斗鱼书画2,https://ygbh--xingkongbujian.repl.co/douyu/10633758
斗鱼书画3,https://ygbh--xingkongbujian.repl.co/douyu/1319043
斗鱼书画4,https://ygbh--xingkongbujian.repl.co/douyu/3436981
斗鱼书画5,https://ygbh--xingkongbujian.repl.co/douyu/7856263
斗鱼书画6,https://ygbh--xingkongbujian.repl.co/douyu/1066432
斗鱼书画7,https://ygbh--xingkongbujian.repl.co/douyu/6327572
斗鱼怀旧1,https://ygbh--xingkongbujian.repl.co/douyu/10891424
斗鱼怀旧2,https://ygbh--xingkongbujian.repl.co/douyu/8023713
斗鱼怀旧3,https://ygbh--xingkongbujian.repl.co/douyu/30191
斗鱼怀旧4,https://ygbh--xingkongbujian.repl.co/douyu/9654885
斗鱼怀旧5,https://ygbh--xingkongbujian.repl.co/douyu/7505922
斗鱼怀旧6,https://ygbh--xingkongbujian.repl.co/douyu/60117
斗鱼怀旧8,https://ygbh--xingkongbujian.repl.co/douyu/9432
斗鱼怀旧9,https://ygbh--xingkongbujian.repl.co/douyu/69247
斗鱼旅行1,https://ygbh--xingkongbujian.repl.co/douyu/9970646
斗鱼旅行2,https://ygbh--xingkongbujian.repl.co/douyu/6563725
斗鱼旅行3,https://ygbh--xingkongbujian.repl.co/douyu/1668562
斗鱼旅行4,https://ygbh--xingkongbujian.repl.co/douyu/9511092
斗鱼旅行5,https://ygbh--xingkongbujian.repl.co/douyu/9358196
斗鱼旅行6,https://ygbh--xingkongbujian.repl.co/douyu/454867
斗鱼旅行7,https://ygbh--xingkongbujian.repl.co/douyu/4837387
斗鱼旅行8,https://ygbh--xingkongbujian.repl.co/douyu/850030
斗鱼旅行9,https://ygbh--xingkongbujian.repl.co/douyu/9378464
斗鱼旅行10,https://ygbh--xingkongbujian.repl.co/douyu/10253213
斗鱼旅行11,https://ygbh--xingkongbujian.repl.co/douyu/10319093
斗鱼旅行12,https://ygbh--xingkongbujian.repl.co/douyu/442280
斗鱼旅行13,https://ygbh--xingkongbujian.repl.co/douyu/1867491
斗鱼旅行14,https://ygbh--xingkongbujian.repl.co/douyu/1255068
斗鱼旅行15,https://ygbh--xingkongbujian.repl.co/douyu/9314668
斗鱼旅行16,https://ygbh--xingkongbujian.repl.co/douyu/9172774
斗鱼旅行17,https://ygbh--xingkongbujian.repl.co/douyu/4834417
斗鱼旅行18,https://ygbh--xingkongbujian.repl.co/douyu/2240445
虎牙,#genre#
周星星,http://43.138.170.29:35455/huya/24470631
猫和老鼠,http://43.138.170.29:35455/huya/11352879
中华小当家,http://43.138.170.29:35455/huya/11342413
甄子丹,http://43.138.170.29:35455/huya/11352935
冯小刚,http://43.138.170.29:35455/huya/11352906
百鸟朝凤,http://43.138.170.29:35455/huya/15894162
陈翔六点半,http://43.138.170.29:35455/huya/11274154
高分电影,http://43.138.170.29:35455/huya/16615910
精彩不断,http://43.138.170.29:35455/huya/24396428
南征北战,http://43.138.170.29:35455/huya/11336578
路飞,http://43.138.170.29:35455/huya/16913382
麻雀,http://43.138.170.29:35455/huya/11352881
倩女幽魂,http://43.138.170.29:35455/huya/11601970
女神影院,https://ygbh--xingkongbujian.repl.co/huya/99350550
极限挑战,http://43.138.170.29:35455/huya/11352914
救援电影,http://43.138.170.29:35455/huya/21059586
欧美电影,http://43.138.170.29:35455/huya/11352880
史诗战争,http://43.138.170.29:35455/huya/21059556
金马影院,https://ygbh--xingkongbujian.repl.co/huya/128600025
生活大爆炸,http://43.138.170.29:35455/huya/11342417
天雷滚滚,http://43.138.170.29:35455/huya/11352945
我是大哥大,http://43.138.170.29:35455/huya/23652317
小鲤鱼,http://43.138.170.29:35455/huya/11601961
星爷,https://ygbh--xingkongbujian.repl.co/huya/11342412
英叔,https://ygbh--xingkongbujian.repl.co/huya/11342421
发哥,https://ygbh--xingkongbujian.repl.co/huya/11342387
成龙,https://ygbh--xingkongbujian.repl.co/huya/11342386
王晶,https://ygbh--xingkongbujian.repl.co/huya/11602058
沈腾,https://ygbh--xingkongbujian.repl.co/huya/11601968
黄渤,https://ygbh--xingkongbujian.repl.co/huya/11352876
强森,https://ygbh--xingkongbujian.repl.co/huya/21059581
漫威,https://ygbh--xingkongbujian.repl.co/huya/11602034
宇宙,https://ygbh--xingkongbujian.repl.co/huya/11342428
怪兽,https://ygbh--xingkongbujian.repl.co/huya/21059577
武侠,https://ygbh--xingkongbujian.repl.co/huya/11342427
警匪,https://ygbh--xingkongbujian.repl.co/huya/11352886
罪犯,https://ygbh--xingkongbujian.repl.co/huya/11352962
枪战,https://ygbh--xingkongbujian.repl.co/huya/21059579
海盗,https://ygbh--xingkongbujian.repl.co/huya/21059595
赛车,https://ygbh--xingkongbujian.repl.co/huya/11279247
推荐,https://ygbh--xingkongbujian.repl.co/huya/11602041
救援,https://ygbh--xingkongbujian.repl.co/huya/21059594
热血,https://ygbh--xingkongbujian.repl.co/huya/11352934
盗墓,https://ygbh--xingkongbujian.repl.co/huya/21059552
贺岁,https://ygbh--xingkongbujian.repl.co/huya/11601971
玄幻,https://ygbh--xingkongbujian.repl.co/huya/11342414
谍战,https://ygbh--xingkongbujian.repl.co/huya/21059585
战争,https://ygbh--xingkongbujian.repl.co/huya/21059592
喜剧,https://ygbh--xingkongbujian.repl.co/huya/11352877
港片,https://ygbh--xingkongbujian.repl.co/huya/11602043
国产,https://ygbh--xingkongbujian.repl.co/huya/11352973
周星星,https://ygbh--xingkongbujian.repl.co/huya/11336587
李连杰,https://ygbh--xingkongbujian.repl.co/huya/11342390
洪金宝,https://ygbh--xingkongbujian.repl.co/huya/11279251
梁家辉,https://ygbh--xingkongbujian.repl.co/huya/11342429
许冠英,https://ygbh--xingkongbujian.repl.co/huya/11601972
刘德华,https://ygbh--xingkongbujian.repl.co/huya/11342424
斯坦森,https://ygbh--xingkongbujian.repl.co/huya/21059588
小鬼头,https://ygbh--xingkongbujian.repl.co/huya/11352963
八点档,https://ygbh--xingkongbujian.repl.co/huya/880261
蜘蛛侠,https://ygbh--xingkongbujian.repl.co/huya/21059599
贺岁片,https://ygbh--xingkongbujian.repl.co/huya/11601986
功夫片,https://ygbh--xingkongbujian.repl.co/huya/11352941
黑帮片,https://ygbh--xingkongbujian.repl.co/huya/11336719
丧尸片,https://ygbh--xingkongbujian.repl.co/huya/21059578
灾难片,https://ygbh--xingkongbujian.repl.co/huya/11602075
谍战片,https://ygbh--xingkongbujian.repl.co/huya/21059587
战争片,https://ygbh--xingkongbujian.repl.co/huya/21059574
犯罪片,https://ygbh--xingkongbujian.repl.co/huya/11352974
古装片,https://ygbh--xingkongbujian.repl.co/huya/11336590
高分动作,https://ygbh--xingkongbujian.repl.co/huya/11352884
动作电影,https://ygbh--xingkongbujian.repl.co/huya/11602077
搞笑喜剧,https://ygbh--xingkongbujian.repl.co/huya/11342423
喜剧专场,https://ygbh--xingkongbujian.repl.co/huya/11602044
欢笑影院,https://ygbh--xingkongbujian.repl.co/huya/11352894
不挤影院,https://ygbh--xingkongbujian.repl.co/huya/11352897
国产悬疑,https://ygbh--xingkongbujian.repl.co/huya/11342395
快意江湖,https://ygbh--xingkongbujian.repl.co/huya/11342435
黑帮斗争,https://ygbh--xingkongbujian.repl.co/huya/11342419
古墓系列,https://ygbh--xingkongbujian.repl.co/huya/11352913
嫣然影厅,https://ygbh--xingkongbujian.repl.co/huya/11601977
女神系列,https://ygbh--xingkongbujian.repl.co/huya/11336571
经典女神,https://ygbh--xingkongbujian.repl.co/huya/11352909
许氏三杰,https://ygbh--xingkongbujian.repl.co/huya/11602033
经典港片,https://ygbh--xingkongbujian.repl.co/huya/11352965
镖行天下,https://ygbh--xingkongbujian.repl.co/huya/11352969
高能反转,https://ygbh--xingkongbujian.repl.co/huya/11352887
喜乐影院,https://ygbh--xingkongbujian.repl.co/huya/21059580
蘑菇影厅,https://ygbh--xingkongbujian.repl.co/huya/11601981
搞笑恐怖,https://ygbh--xingkongbujian.repl.co/huya/11601960
死神来了,https://ygbh--xingkongbujian.repl.co/huya/11352903
变形金刚,https://ygbh--xingkongbujian.repl.co/huya/21059596
怪兽系列,https://ygbh--xingkongbujian.repl.co/huya/21059554
老三国,https://ygbh--xingkongbujian.repl.co/huya/11602081
新三国,https://ygbh--xingkongbujian.repl.co/huya/11352944
新水浒,https://ygbh--xingkongbujian.repl.co/huya/11342384
纪晓岚,https://ygbh--xingkongbujian.repl.co/huya/11342396
庆余年,https://ygbh--xingkongbujian.repl.co/huya/11352960
雍正王朝,https://ygbh--xingkongbujian.repl.co/huya/11342439
士兵突击,https://ygbh--xingkongbujian.repl.co/huya/11342430
爱情公寓,https://ygbh--xingkongbujian.repl.co/huya/11336726
家有儿女,https://ygbh--xingkongbujian.repl.co/huya/11352872
武林外传,https://ygbh--xingkongbujian.repl.co/huya/21059598
地下交通站,https://ygbh--xingkongbujian.repl.co/huya/11342433
邻里一家亲,https://ygbh--xingkongbujian.repl.co/huya/11342426
肥羊,#genre#
4K60PSDR-H264-AAC测试,http://159.75.85.63:5680/d/ad/h264/playad.m3u8
4K60PHLG-HEVC-EAC3测试,http://159.75.85.63:5680/d/ad/playad.m3u8
BTV纪实科教-8KSDR源,http://159.75.85.63:6798
CCTV8K,http://159.75.85.63:8765/xxtv8k.php
CCTV8K-50FPS,http://159.75.85.63:8654/xx8k50fps.php
苏州4K,http://liveshowbak2.kan0512.com/ksz-norecord/csztv4k_4k.m3u8
欢笑剧场4K银河源,http://111.20.35.103:6610/yinhe/2/ch00000090990000002156/index.m3u8?virtualDomain=yinhe.live_hls.zte.com&IASHttpSessionId=
欢笑剧场4K,https://live.goodiptv.club/api/cqyx.php?id=hxjc_4K
纯享4K,http://39.135.138.58:18890/PLTV/88888888/224/3221225786/index.m3u8
纯享4K备,http://39.134.115.163:8080/PLTV/88888910/224/3221225786/index.m3u8
CCTV4K-25P-HLG源,http://159.75.85.63:5679/cctv4k.php
CCTV4K-25P-SDR源,https://live.goodiptv.club/api/cqyx.php?id=CCTV4K
CCTV16-4K25P-SDR源,https://live.goodiptv.club/api/cqyx.php?id=CCTV16_4K
CCTV16-4K-25PHLG源,http://113.62.253.22/live.aishang.ctlcdn.com/00000110240389_1/playlist.m3u8?CONTENTID=00000110240389_1&AUTHINFO=FABqh274XDn8fkurD5614t%2B1RvYajgx%2Ba3PxUJe1SMO4OjrtFitM6ZQbSJEFffaD35hOAhZdTXOrK0W8QvBRom%2BXaXZYzB%2FQfYjeYzGgKhP%2Fdo%2BXpr4quVxlkA%2BubKvbU1XwJFRgrbX%2BnTs60JauQUrav8kLj%2FPH8LxkDFpzvkq75UfeY%2FVNDZygRZLw4j%2BXtwhj%2FIuXf1hJAU0X%2BheT7g%3D%3D&USERTOKEN=eHKuwve%2F35NVIR5qsO5XsuB0O2BhR0KR
爱上4K,http://111.20.40.170/PLTV/88888893/224/3221226352/index.m3u8
北京IPTV-4K,http://221.179.217.76/PLTV/88888888/224/3221226550/1.m3u8
4K影视,http://nas.jdshipin.com:8801/4kys.php
虎牙4K王者荣耀,http://159.75.85.63:35455/huya/wzgxs1
虎牙魔兽世界4K,http://159.75.85.63:35455/huya/shangdi
虎牙战地五4K,http://159.75.85.63:35455/huya/28260962
斗鱼4K激战2,http://159.75.85.63:35455/douyu/3916618
斗鱼4K电影,http://159.75.85.63:35455/douyu/9249162
咪咕体育-4K-HLG源,http://gslbserv.itv.cmvideo.cn:80/3000000010000005180/index.m3u8?channel-id=FifastbLive&Contentid=3000000010000005180&livemode=1&stbId=3
咪咕体育-4K源-2,http://gslbserv.itv.cmvideo.cn:80/3000000010000015686/index.m3u8?channel-id=FifastbLive&Contentid=3000000010000015686&livemode=1&stbId=3
江苏8K测试,http://[2409:8087:2001:20:2800:0:df6e:eb04]/wh7f454c46tw1782571424_-1576923679/ott.mobaibox.com/PLTV/3/224/3221228132/index.m3u8?icpid=3&RTS=1674188624&from=40&popid=40&hms_devid=2041&prioritypopid=40&vqe=3
CCTV8K测试,http://[2409:8087:2001:20:2800:0:df6e:eb03]/wh7f454c46tw1981574683_-2118700426/ott.mobaibox.com/PLTV/3/224/3221228165/index.m3u8?icpid=3&RTS=1659435610&from=40&popid=40&hms_devid=2039&prioritypopid=40&vqe=3
CCTV1-4K,http://[2409:8087:2001:20:2800:0:df6e:eb02]/ott.mobaibox.com/PLTV/4/224/3221227896/index.m3u8
CCTV3-4K,http://[2409:8087:2001:20:2800:0:df6e:eb20]/ott.mobaibox.com/PLTV/4/224/3221228499/index.m3u8
CCTV5-4K,http://[2409:8087:2001:20:2800:0:df6e:eb22]/ott.mobaibox.com/PLTV/4/224/3221228502/index.m3u8
CCTV6-4K,http://[2409:8087:2001:20:2800:0:df6e:eb22]/ott.mobaibox.com/PLTV/4/224/3221228516/index.m3u8
CCTV8-4K,http://[2409:8087:2001:20:2800:0:df6e:eb26]/ott.mobaibox.com/PLTV/4/224/3221228578/index.m3u8
未知4K,http://[2409:8087:2004:20:2800:0:df6e:ec11]/wh7f454c46tw3939513710_-75405980/ott.mobaibox.com/PLTV/3/224/3221227579/index.m3u8?icpid=3&RTS=1678666137&from=40&popid=40&hms_devid=2153&prioritypopid=40&vqe=3
BesTV-4K,http://[2409:8087:5e01:34::30]:6610/ZTE_CMS/00000001000000060000000000000202/index.m3u8?IAS
河南4K,http://[2409:8087:4400:20:1:a0f:12:33]/iptv.cdn.ha.chinamobile.com/PLTV/88888888/224/3221226526/index.m3u8
芒果娱乐4K,http://[2409:8087:3428:20:500::100f]:6610/PLTV/88888888/224/3221226887/index.m3u8?servicetype=1
纯享4K,http://[2409:8087:3869:8021:1001::e5]:6610/PLTV/88888910/224/3221225786/index.m3u8
BESTV,#genre#
CCTV16-4K,https://live.goodiptv.club/api/bestv.php?id=cctv16hd4k/15000000
CCTV-4K,https://live.goodiptv.club/api/bestv.php?id=cctv4k/15000000
欢笑剧场4k,https://live.goodiptv.club/api/bestv.php?id=hxjc4k/15000000
4K60PSDR-H264-AAC测试,http://159.75.85.63:5680/d/ad/h264/playad.m3u8
4K60PHLG-HEVC-EAC3测试,http://159.75.85.63:5680/d/ad/playad.m3u8
CCTV1,https://live.goodiptv.club/api/bestv.php?id=cctv1hd8m/8000000
CCTV2,https://live.goodiptv.club/api/bestv.php?id=cctv2hd8m/8000000
CCTV3,https://live.goodiptv.club/api/bestv.php?id=cctv38m/8000000
CCTV4,https://live.goodiptv.club/api/bestv.php?id=cctv4hd8m/8000000
CCTV5,https://live.goodiptv.club/api/bestv.php?id=cctv58m/8000000
CCTV5+,https://live.goodiptv.club/api/bestv.php?id=cctv5phd8m/8000000
CCTV6,https://live.goodiptv.club/api/bestv.php?id=cctv6hd8m/8000000
CCTV7,https://live.goodiptv.club/api/bestv.php?id=cctv7hd8m/8000000
CCTV8,https://live.goodiptv.club/api/bestv.php?id=cctv8hd8m/8000000
CCTV9,https://live.goodiptv.club/api/bestv.php?id=cctv9hd8m/8000000
CCTV10,https://live.goodiptv.club/api/bestv.php?id=cctv10hd8m/8000000
CCTV11,https://live.goodiptv.club/api/bestv.php?id=cctv11hd8m/8000000
CCTV12,https://live.goodiptv.club/api/bestv.php?id=cctv12hd8m/8000000
CCTV13,https://live.goodiptv.club/api/bestv.php?id=cctv13xwhd8m/8000000
CCTV14,https://live.goodiptv.club/api/bestv.php?id=cctvsehd8m/8000000
CCTV15,https://live.goodiptv.club/api/bestv.php?id=cctv15hd8m/8000000
CCTV16,https://live.goodiptv.club/api/bestv.php?id=cctv16hd8m/8000000
CCTV17,https://live.goodiptv.club/api/bestv.php?id=cctv17hd8m/8000000
江苏卫视,https://live.goodiptv.club/api/bestv.php?id=jswshd8m/8000000
广西卫视,https://live.goodiptv.club/api/bestv.php?id=gxwshd8m/8000000
四川卫视,https://live.goodiptv.club/api/bestv.php?id=scwshd/8000000
湖南卫视,https://live.goodiptv.club/api/bestv.php?id=hunanwshd8m/8000000
浙江卫视,https://live.goodiptv.club/api/bestv.php?id=zjwshd8m/8000000
东方卫视,https://live.goodiptv.club/api/bestv.php?id=dfwshd8m/8000000
北京卫视,https://live.goodiptv.club/api/bestv.php?id=bjwshd8m/8000000
天津卫视,https://live.goodiptv.club/api/bestv.php?id=tjwshd8m/8000000
辽宁卫视,https://live.goodiptv.club/api/bestv.php?id=lnwshd8m/8000000
安徽卫视,https://live.goodiptv.club/api/bestv.php?id=ahwshd8m/8000000
黑龙江卫视,https://live.goodiptv.club/api/bestv.php?id=hljwshd8m/8000000
广东卫视,https://live.goodiptv.club/api/bestv.php?id=gdwshd8m/8000000
深圳卫视,https://live.goodiptv.club/api/bestv.php?id=szwshd8m/8000000
湖北卫视,https://live.goodiptv.club/api/bestv.php?id=hubeiws8m/8000000
吉林卫视,https://live.goodiptv.club/api/bestv.php?id=jlwshd8m/8000000
山东卫视,https://live.goodiptv.club/api/bestv.php?id=sdws8m/8000000
江西卫视,https://live.goodiptv.club/api/bestv.php?id=jxws8m/8000000
河南卫视,https://live.goodiptv.club/api/bestv.php?id=hnwshd8m/8000000
河北卫视,https://live.goodiptv.club/api/bestv.php?id=hbwshd8m/8000000
甘肃卫视,https://live.goodiptv.club/api/bestv.php?id=gswshd8m/8000000
重庆卫视,https://live.goodiptv.club/api/bestv.php?id=cqws8m/8000000
东南卫视,https://live.goodiptv.club/api/bestv.php?id=dnwshd8m/8000000
云南卫视,https://live.goodiptv.club/api/bestv.php?id=ynwshd8m/8000000
贵州卫视,https://live.goodiptv.club/api/bestv.php?id=gzwshd8m/8000000
海南卫视,https://live.goodiptv.club/api/bestv.php?id=hainanwshd8m/8000000
欢笑剧场,https://live.goodiptv.club/api/bestv.php?id=hxjc8m/8000000
劲爆体育,https://live.goodiptv.club/api/bestv.php?id=jbtyhd8m/8000000
快乐垂钓,https://live.goodiptv.club/api/bestv.php?id=klcd8m/8000000
金鹰纪实,https://live.goodiptv.club/api/bestv.php?id=jyjs8m/8000000
戏曲精选,https://live.goodiptv.club/api/bestv.php?id=xqjx8m/8000000
上海第一财经,https://live.goodiptv.club/api/bestv.php?id=dycjhd8m/8000000
上视新闻,https://live.goodiptv.club/api/bestv.php?id=xwzhhd8m/8000000
上海都市,https://live.goodiptv.club/api/bestv.php?id=dshd8m/8000000
上海纪实,https://live.goodiptv.club/api/bestv.php?id=jspdhd/4000000
东方影视,https://live.goodiptv.club/api/bestv.php?id=dfyshd8m/8000000
五星体育,https://live.goodiptv.club/api/bestv.php?id=wxtyhd8m/8000000
上视外语,https://live.goodiptv.club/api/bestv.php?id=icshd8m/8000000
七彩戏剧,https://live.goodiptv.club/api/bestv.php?id=qcxjhd8m/8000000
上海教育,https://live.goodiptv.club/api/bestv.php?id=setvhd/8000000
全纪实,https://live.goodiptv.club/api/bestv.php?id=qjshd8m/8000000
生活时尚,https://live.goodiptv.club/api/bestv.php?id=shss8m/8000000
新视觉,https://live.goodiptv.club/api/bestv.php?id=xsjhd8m/8000000
游戏风云,https://live.goodiptv.club/api/bestv.php?id=yxfy8m/8000000
热门综艺,https://live.goodiptv.club/api/bestv.php?id=rmzy8m/8000000
超级体育,https://live.goodiptv.club/api/bestv.php?id=qcsj8m/8000000
健康养生,https://live.goodiptv.club/api/bestv.php?id=jkys8m/8000000
百变课堂,https://live.goodiptv.club/api/bestv.php?id=bbkt8m/8000000
看天下精选,https://live.goodiptv.club/api/bestv.php?id=ktxjx8m/8000000
华语影院,https://live.goodiptv.club/api/bestv.php?id=hyyy8m/8000000
电竞天堂,https://live.goodiptv.club/api/bestv.php?id=djtt8m/8000000
青春动漫,https://live.goodiptv.club/api/bestv.php?id=qcdm8m/8000000
宝宝动画,https://live.goodiptv.club/api/bestv.php?id=bbdh8m/8000000
星光影院,https://live.goodiptv.club/api/bestv.php?id=xgyy8m/8000000
谍战剧场,https://live.goodiptv.club/api/bestv.php?id=dzjc8m/8000000
全球大片,https://live.goodiptv.club/api/bestv.php?id=qqdp8m/8000000
热门剧场,https://live.goodiptv.club/api/bestv.php?id=rmjc8m/8000000
陶瓷高清,https://live.goodiptv.club/api/bestv.php?id=taocihd/8000000
中国教育-1,https://live.goodiptv.club/api/bestv.php?id=zgjy1t8m/8000000
中国教育-4,https://live.goodiptv.club/api/bestv.php?id=zgjy4hd8m/8000000
卡酷少儿,https://live.goodiptv.club/api/bestv.php?id=kkse8m/8000000
纪实科教,https://live.goodiptv.club/api/bestv.php?id=dajs8m/8000000
茶频道,https://live.goodiptv.club/api/bestv.php?id=cpdhdavs8m/8000000
足球高清,https://live.goodiptv.club/api/bestv.php?id=zqpd8m/8000000
炫动卡通,https://live.goodiptv.club/api/bestv.php?id=hhxd8m/8000000
东方财经,https://live.goodiptv.club/api/bestv.php?id=dfcjhd8m/8000000
都市剧场,https://live.goodiptv.club/api/bestv.php?id=dsjc8m/8000000
动漫秀场,https://live.goodiptv.club/api/bestv.php?id=dmxc8m/8000000
法治天地,https://live.goodiptv.club/api/bestv.php?id=fztd8m/8000000
金色学堂,https://live.goodiptv.club/api/bestv.php?id=jingsepd8m/8000000
魅力足球,https://live.goodiptv.club/api/bestv.php?id=mlyyhd8m/8000000
精品,#genre#
北京冬奥,http://dbiptv.sn.chinamobile.com/PLTV/88888890/224/3221226232/index.m3u8
纪实人文,http://dbiptv.sn.chinamobile.com/PLTV/88888890/224/3221226230/index.m3u8
求索纪录,http://39.134.66.110/PLTV/88888888/224/3221225713/index.m3u8
黑莓电影,http://39.134.66.110/PLTV/88888888/224/3221225681/index.m3u8
黑莓动画,http://39.134.66.110/PLTV/88888888/224/3221225529/index.m3u8
爱情喜剧,http://39.134.66.110/PLTV/88888888/224/3221225533/index.m3u8
超级电视剧,http://39.134.66.110/PLTV/88888888/224/3221225637/index.m3u8
超级电影,http://39.134.66.110/PLTV/88888888/224/3221225644/index.m3u8
超级体育,http://39.134.66.110/PLTV/88888888/224/3221225635/index.m3u8
超级综艺,http://39.134.66.110/PLTV/88888888/224/3221225642/index.m3u8
潮妈辣婆,http://39.134.66.110/PLTV/88888888/224/3221225542/index.m3u8
东北热剧,http://39.134.66.110/PLTV/88888888/224/3221225679/index.m3u8
北京冬奥,http://39.134.66.110/PLTV/88888888/224/3221225670/index.m3u8
动作电影,http://39.134.66.110/PLTV/88888888/224/3221225555/index.m3u8
古装剧场,http://39.134.66.110/PLTV/88888888/224/3221225524/index.m3u8
欢乐剧场,http://39.134.66.110/PLTV/88888888/224/3221225682/index.m3u8
纪实人文,http://39.134.66.110/PLTV/88888888/224/3221225673/index.m3u8
家庭剧场,http://39.134.66.110/PLTV/88888888/224/3221225538/index.m3u8
金牌综艺,http://39.134.66.110/PLTV/88888888/224/3221225525/index.m3u8
惊悚悬疑,http://39.134.66.110/PLTV/88888888/224/3221225553/index.m3u8
精品大剧,http://39.134.66.110/PLTV/88888888/224/3221225536/index.m3u8
精品纪录,http://39.134.66.110/PLTV/88888888/224/3221225545/index.m3u8
精品体育,http://39.134.66.110/PLTV/88888888/224/3221225526/index.m3u8
军旅剧场,http://39.134.66.110/PLTV/88888888/224/3221225560/index.m3u8
军事评论,http://39.134.66.110/PLTV/88888888/224/3221225535/index.m3u8
农业致富,http://39.134.66.110/PLTV/88888888/224/3221225552/index.m3u8
武搏世界,http://39.134.66.110/PLTV/88888888/224/3221225547/index.m3u8
炫舞未来,http://39.134.66.110/PLTV/88888888/224/3221225646/index.m3u8
中国功夫,http://39.134.66.110/PLTV/88888888/224/3221225604/index.m3u8
金马影院,http://hpull.kktv8.com/livekktv/128600025/playlist.m3u8
足球频道,https://nmglive.imfc.cn/5n1r1c/182396.m3u8
NewTV,#genre#
NewTV超级体育,http://39.134.66.66/PLTV/88888888/224/3221225635/index.m3u8
NewTV超级体育,http://39.135.138.59:18890/PLTV/88888910/224/3221225622/index.m3u8
NewTV超级体育,http://39.135.138.59:18890/PLTV/88888910/224/3221225648/index.m3u8
NewTV超级体育,http://39.135.138.60:18890/PLTV/88888910/224/3221225767/index.m3u8
NewTV超级体育,http://ottrrs.hl.chinamobile.com/PLTV/88888888/224/3221225715/index.m3u8
NewTV超级综艺,http://39.134.66.66/PLTV/88888888/224/3221225642/index.m3u8
NewTV超级综艺,http://39.135.138.59:18890/PLTV/88888910/224/3221225768/index.m3u8
NewTV超级综艺,http://39.135.138.60:18890/PLTV/88888910/224/3221225620/index.m3u8
NewTV超级综艺,http://ottrrs.hl.chinamobile.com/PLTV/88888888/224/3221225714/index.m3u8
NewTV潮妈辣婆,http://39.134.66.66/PLTV/88888888/224/3221225542/index.m3u8
NewTV潮妈辣婆,http://ottrrs.hl.chinamobile.com/PLTV/88888888/224/3221225685/index.m3u8
NewTV东北热剧,http://39.135.135.35:80/wh7f454c46tw1751026922_1159821621/ottrrs.hl.chinamobile.com/PLTV/88888888/224/3221225741/index.m3u8?icpid=88888888&RTS=1554599523&from=1&hms_devid=691
NewTV东北热剧,http://ottrrs.hl.chinamobile.com/PLTV/88888888/224/3221225741/index.m3u8
NewTV动作电影,http://ottrrs.hl.chinamobile.com/PLTV/88888888/224/3221225661/index.m3u8
NewTV古装剧场,http://39.134.66.66/PLTV/88888888/224/3221225524/index.m3u8
NewTV古装剧场,http://39.135.138.60:18890/PLTV/88888910/224/3221225678/index.m3u8
NewTV古装剧场,http://ottrrs.hl.chinamobile.com/PLTV/88888888/224/3221225663/index.m3u8
NewTV海外剧场,http://ottrrs.hl.chinamobile.com/PLTV/88888888/224/3221225671/index.m3u8
NewTV欢乐剧场,http://39.135.135.81:80/wh7f454c46tw1744894462_1818032107/ottrrs.hl.chinamobile.com/PLTV/88888888/224/3221225742/index.m3u8?icpid=88888888&RTS=1554599517&from=1&hms_devid=690
NewTV欢乐剧场,http://ottrrs.hl.chinamobile.com/PLTV/88888888/224/3221225742/index.m3u8
NewTV家庭剧场,http://39.134.66.66/PLTV/88888888/224/3221225538/index.m3u8
NewTV家庭剧场,http://ottrrs.hl.chinamobile.com/PLTV/88888888/224/3221225677/index.m3u8
NewTV金牌综艺,http://39.134.66.66/PLTV/88888888/224/3221225525/index.m3u8
NewTV金牌综艺,http://39.135.138.59:18890/PLTV/88888910/224/3221225711/index.m3u8
NewTV惊悚悬疑,http://39.134.66.66/PLTV/88888888/224/3221225553/index.m3u8
NewTV惊悚悬疑,http://ottrrs.hl.chinamobile.com/PLTV/88888888/224/3221225665/index.m3u8
NewTV精品大剧,http://39.134.66.66/PLTV/88888888/224/3221225536/index.m3u8
NewTV精品大剧,http://39.135.138.60:18890/PLTV/88888910/224/3221225714/index.m3u8
NewTV精品大剧,http://ottrrs.hl.chinamobile.com/PLTV/88888888/224/3221225670/index.m3u8
NewTV精品纪录,http://39.134.66.66/PLTV/88888888/224/3221225545/index.m3u8
NewTV精品纪录,http://39.135.138.60:18890/PLTV/88888910/224/3221225710/index.m3u8
NewTV精品纪录,http://ottrrs.hl.chinamobile.com/PLTV/88888888/224/3221225672/index.m3u8
NewTV精品体育,http://39.134.66.66/PLTV/88888888/224/3221225526/index.m3u8
NewTV精品体育,http://39.135.138.60:18890/PLTV/88888910/224/3221225709/index.m3u8
NewTV军旅剧场,http://39.134.66.66/PLTV/88888888/224/3221225560/index.m3u8
NewTV军旅剧场,http://39.135.138.59:18890/PLTV/88888910/224/3221225669/index.m3u8
NewTV军旅剧场,http://gslbserv.itv.cmvideo.cn:80/000000001000/7485075951068666323/1.m3u8?channel-id=ystenlive&Contentid=7485075951068666323&livemode=1&stbId=003901FF0001181003FC08A5C8C6C037&userToken=85a5a98cdcab4d800a8ec29a9d917e8d10vv&usergroup=g10045200000&version=1.0&owaccmark=7485075951068666323&owchid=ystenlive&owsid=7951969344461285239
NewTV军旅剧场,http://ottrrs.hl.chinamobile.com/PLTV/88888888/224/3221225676/index.m3u8
NewTV军事评论,http://39.134.66.66/PLTV/88888888/224/3221225535/index.m3u8
NewTV军事评论,http://ottrrs.hl.chinamobile.com/PLTV/88888888/224/3221225668/index.m3u8
NewTV明星大片,http://39.134.66.66/PLTV/88888888/224/3221225550/index.m3u8
NewTV明星大片,http://39.135.138.59:18890/PLTV/88888910/224/3221225716/index.m3u8
NewTV明星大片,http://gslbserv.itv.cmvideo.cn:80/000000001000/5595720619887440144/1.m3u8?channel-id=ystenlive&Contentid=5595720619887440144&livemode=1&stbId=003901FF0001181003FC08A5C8C6C037&userToken=85a5a98cdcab4d800a8ec29a9d917e8d10vv&usergroup=g10045200000&version=1.0&owaccmark=5595720619887440144&owchid=ystenlive&owsid=7951969344461437044
NewTV明星大片,http://ottrrs.hl.chinamobile.com/PLTV/88888888/224/3221225664/index.m3u8
NewTV农业致富,http://39.134.66.66/PLTV/88888888/224/3221225552/index.m3u8
NewTV农业致富,http://39.135.138.59:18890/PLTV/88888910/224/3221225670/index.m3u8
NewTV农业致富,http://ottrrs.hl.chinamobile.com/PLTV/88888888/224/3221225683/index.m3u8
NewTV武搏世界,http://39.134.66.66/PLTV/88888888/224/3221225547/index.m3u8
NewTV武搏世界,http://ottrrs.hl.chinamobile.com/PLTV/88888888/224/3221225680/index.m3u8
NewTV炫舞未来,http://39.134.66.66/PLTV/88888888/224/3221225646/index.m3u8
NewTV炫舞未来,http://39.135.138.59:18890/PLTV/88888910/224/3221225707/index.m3u8
NewTV炫舞未来,http://ottrrs.hl.chinamobile.com/PLTV/88888888/224/3221225719/index.m3u8
NewTV怡伴健康,http://39.134.66.66/PLTV/88888888/224/3221225571/index.m3u8
NewTV怡伴健康,http://ottrrs.hl.chinamobile.com/PLTV/88888888/224/3221225673/index.m3u8
NewTV中国功夫,http://39.134.66.66/PLTV/88888888/224/3221225604/index.m3u8
NewTV中国功夫,http://39.135.138.60:18890/PLTV/88888910/224/3221225660/index.m3u8
NewTV中国功夫,http://ottrrs.hl.chinamobile.com/PLTV/88888888/224/3221225681/index.m3u8
黑莓电竞,http://39.134.66.66/PLTV/88888888/224/3221225559/index.m3u8
黑莓电竞,http://39.135.138.60:18890/PLTV/88888910/224/3221225653/index.m3u8
黑莓电影,http://39.135.138.60:18890/PLTV/88888910/224/3221225718/index.m3u8
黑莓电影,http://gslbserv.itv.cmvideo.cn:80/000000001000/8785669936177902664/1.m3u8?channel-id=ystenlive&Contentid=8785669936177902664&livemode=1&stbId=003901FF0001181003FC08A5C8C6C037&userToken=85a5a98cdcab4d800a8ec29a9d917e8d10vv&usergroup=g10045200000&version=1.0&owaccmark=8785669936177902664&owchid=ystenlive&owsid=7951969344461621383
黑莓动画,http://39.134.66.66/PLTV/88888888/224/3221225529/index.m3u8
黑莓动画,http://39.135.138.59:18890/PLTV/88888910/224/3221225672/index.m3u8
求索动物,http://39.134.66.66/PLTV/88888888/224/3221225730/index.m3u8
求索纪录,http://39.134.66.66/PLTV/88888888/224/3221225713/index.m3u8
求索科学,http://39.134.66.66/PLTV/88888888/224/3221225728/index.m3u8
求索生活,http://39.134.66.66/PLTV/88888888/224/3221225715/index.m3u8
优漫卡通,http://39.135.138.59:18890/PLTV/88888910/224/3221225665/index.m3u8
金鹰卡通,http://39.135.138.59:18890/PLTV/88888910/224/3221225721/index.m3u8
卡酷少儿,http://39.135.138.60:18890/PLTV/88888910/224/3221225677/index.m3u8
都市剧场,http://183.207.255.188/live/program/live/dsjchd/4000000/mnf.m3u8
动漫秀场,http://183.207.255.188/live/program/live/dmxchd/4000000/mnf.m3u8
游戏风云,http://183.207.255.188/live/program/live/yxfyhd/4000000/mnf.m3u8
生活时尚,http://183.207.255.188/live/program/live/shsshd/4000000/mnf.m3u8
全纪实,http://183.207.255.188/live/program/live/qjshd/4000000/mnf.m3u8
超级体育,http://39.135.138.58:18890/PLTV/88888888/224/3221225622/index.m3u8?blog.ntnas.top
超级综艺,http://39.135.138.58:18890/PLTV/88888888/224/3221225620/index.m3u8?blog.ntnas.top
东北热剧,http://39.135.138.58:18890/PLTV/88888888/224/3221226202/index.m3u8?blog.ntnas.top
欢乐剧场,http://39.135.138.58:18890/PLTV/88888888/224/3221226210/index.m3u8?blog.ntnas.top
炫舞未来,http://39.135.138.58:18890/PLTV/88888888/224/3221225707/index.m3u8?blog.ntnas.top
CHC动作电影,http://111.20.45.162/dbiptv.sn.chinamobile.com/PLTV/88888890/224/3221226465/index.m3u8
CHC动作电影,http://39.134.18.66/dbiptv.sn.chinamobile.com/PLTV/88888888/224/3221226465/1.m3u8
CHC动作电影,http://39.134.19.228:6610/yinhe/2/ch00000090990000002055/index.m3u8?virtualDomain=yinhe.live_hls.zte.com
CHC动作电影,http://dbiptv.sn.chinamobile.com/PLTV/88888890/224/3221226465/index.m3u8
CHC高清电影,http://111.20.105.60:6060/yinhe/2/ch00000090990000002065/index.m3u8?virtualDomain=yinhe.live_hls.zte.com
CHC高清电影,http://111.20.105.60:6060/yinhe/2/ch00000090990000002065?virtualDomain=yinhe.live_hls.zte.com
CHC高清电影,http://39.134.18.65/dbiptv.sn.chinamobile.com/PLTV/88888890/224/3221226463/index.m3u8
CHC高清电影,http://39.134.18.66/dbiptv.sn.chinamobile.com/PLTV/88888890/224/3221226463/index.m3u8
CHC高清电影,http://39.134.18.68/dbiptv.sn.chinamobile.com/PLTV/88888888/224/3221226463/1.m3u8
CHC高清电影,http://39.134.18.69/dbiptv.sn.chinamobile.com/PLTV/88888888/224/3221226463/1.m3u8
CHC高清电影,http://dbiptv.sn.chinamobile.com/PLTV/88888890/224/3221226463/index.m3u8
CHC家庭影院,http://111.20.105.60:6060/yinhe/2/ch00000090990000002085/index.m3u8?virtualDomain=yinhe.live_hls.zte.com
CHC家庭影院,http://111.20.105.60:6060/yinhe/2/ch00000090990000002085?virtualDomain=yinhe.live_hls.zte.com
CHC家庭影院,http://39.134.18.65/dbiptv.sn.chinamobile.com/PLTV/88888888/224/3221226462/1.m3u8
CHC家庭影院,http://39.134.18.68/dbiptv.sn.chinamobile.com/PLTV/88888890/224/3221226462/index.m3u8
CHC家庭影院,http://39.134.19.228:6610/yinhe/2/ch00000090990000002085/index.m3u8?virtualDomain=yinhe.live_hls.zte.com
CHC家庭影院,http://dbiptv.sn.chinamobile.com/PLTV/88888890/224/3221226462/index.m3u8
北京冬奥,http://ottrrs.hl.chinamobile.com/PLTV/88888888/224/3221225729/index.m3u8
央视台球,http://39.134.19.246:6610/yinhe/2/ch00000090990000001669/index.m3u8?virtualDomain=yinhe.live_hls.zte.com
咪咕视频,http://39.134.66.66/PLTV/88888888/224/3221225613/index.m3u8
百视通体育,http://dbiptv.sn.chinamobile.com/PLTV/88888890/224/3221225847/index.m3u8
百视通体育,http://dbiptv.sn.chinamobile.com/PLTV/88888890/224/3221225834/index.m3u8
地方,#genre#
吉林影视,http://stream1.jlntv.cn/yspd/sd/live.m3u8
吉林乡村,http://stream1.jlntv.cn/xcpd/sd/live.m3u8
晋中公共,http://jzlive.jztvnews.com:90/live/jzgg.m3u8
晋中综合,http://jzlive.jztvnews.com:90/live/jzzh.m3u8
浙江国际,http://hw-m-l.cztv.com/channels/lantian/channel010/1080p.m3u8
浙江国际,http://hw-m-l.cztv.com/channels/lantian/channel10/1080p.m3u8
浙江教育台,http://hw-m-l.cztv.com/channels/lantian/channel004/1080p.m3u8
浙江教育台,http://hw-m-l.cztv.com/channels/lantian/channel04/1080p.m3u8
浙江经济生活,http://hw-m-l.cztv.com/channels/lantian/channel003/1080p.m3u8
浙江经济生活,http://hw-m-l.cztv.com/channels/lantian/channel03/1080p.m3u8
浙江留学,http://hw-m-l.cztv.com/channels/lantian/channel09/1080p.m3u8
浙江龙泉,http://l.cztvcloud.com/channels/lantian/SXlongquan1/720p.m3u8
浙江民生休闲,http://hw-m-l.cztv.com/channels/lantian/channel06/1080p.m3u8
浙江民生休闲,http://hw-m-l.cztv.com/channels/lantian/channel06/720p.m3u8
浙江钱江频道,http://hw-m-l.cztv.com/channels/lantian/channel002/1080p.m3u8
浙江钱江台,http://hw-m-l.cztv.com/channels/lantian/channel02/1080p.m3u8
浙江青田,http://l.cztvcloud.com/channels/lantian/SXqingtian1/720p.m3u8
浙江少儿,http://hw-m-l.cztv.com/channels/lantian/channel08/1080p.m3u8
浙江数码时代,http://hw-m-l.cztv.com/channels/lantian/channel012/1080p.m3u8
浙江松阳,http://l.cztvcloud.com/channels/lantian/SXsongyang1/720p.m3u8
浙江遂昌,http://l.cztvcloud.com/channels/lantian/SXsuichang1/720p.m3u8
浙江卫视,http://hw-m-l.cztv.com/channels/lantian/channel01/1080p.m3u8
浙江新闻,http://hw-m-l.cztv.com/channels/lantian/channel007/1080p.m3u8
浙江新闻,http://hw-m-l.cztv.com/channels/lantian/channel07/1080p.m3u8
浙江休闲台,http://hw-m-l.cztv.com/channels/lantian/channel006/1080p.m3u8
浙江少儿,http://hw-m-l.cztv.com/channels/lantian/channel008/1080p.m3u8
世界,#genre#
凤凰中文,https://playtv-live.ifeng.com/live/06OLEGEGM4G.m3u8
无线新闻台,http://r.jdshipin.com/CkuBd
莲花卫视,http://www.238311.cn:555/lotustv.php
澳亚卫视,https://live.mastvnet.com/lsdream/lY44pmm/2000/live.m3u8
有線新聞,http://61.10.2.141/live_freedirect/hd110_h.live/playlist.m3u8
時尚台FTV,http://80.94.54.42/fashiontv/stream/playlist.m3u8
時尚台FTV,http://lb.streaming.sk/fashiontv/stream/chunklist.m3u8
长城精品,http://38.64.72.148:80/hls/modn/list/4008/chunklist1.m3u8
长城精品,http://38.64.72.148:80/hls/modn/list/4008/chunklist0.m3u8
香港32台,https://rthktv32-live.akamaized.net/hls/live/2036819/RTHKTV32/stream5/streamPlaylist.m3u8
TVBS新闻台,http://38.64.72.148/hls/modn/list/4006/chunklist0.m3u8
TVBS新闻台,http://38.64.72.148:80/hls/modn/list/4006/chunklist0.m3u8
TVBS亚洲台,http://38.64.72.148:80/hls/modn/list/4005/chunklist1.m3u8
东森美洲卫视,http://38.64.72.148:80/hls/modn/list/2015/chunklist0.m3u8
华语电视2,http://38.64.72.148:80/hls/modn/list/4002/chunklist0.m3u8
华语电视3,http://38.64.72.148:80/hls/modn/list/4003/chunklist0.m3u8
TW台视新闻,http://38.64.72.148:80/hls/modn/list/4013/chunklist1.m3u8
TW台视新闻,http://38.64.72.148:80/hls/modn/list/4013/chunklist0.m3u8
番薯,http://61.216.67.119:1935/TWHG/E1/chunklist_w705811302.m3u8
民視新聞,http://38.64.72.148/hls/modn/list/4012/chunklist0.m3u8
民視新聞,http://38.64.72.148/hls/modn/list/4012/chunklist1.m3u8
台視新聞,http://38.64.72.148/hls/modn/list/4013/chunklist0.m3u8
台視新聞,http://38.64.72.148/hls/modn/list/4013/chunklist1.m3u8
TVBS新聞,http://38.64.72.148/hls/modn/list/4006/chunklist1.m3u8
東森超視34.5,http://38.64.72.148:80/hls/modn/list/2013/chunklist1.m3u8
TVBS亞洲,http://38.64.72.148:80/hls/modn/list/4005/playlist.m3u8
民视新闻台,http://38.64.72.148:80/hls/modn/list/4012/chunklist1.m3u8
澳门莲花,http://anren.live/HK/BiIOU11uLA.m3u8
耀才財經台 (576p),http://202.69.67.66:443/webcast/bshdlive-pc/playlist.m3u8
有线新闻台,http://61.10.2.141/live_freedirect/freehd209_h.live/playlist.m3u8
耀才财经新闻,http://202.69.67.66:443/webcast/bshdlive-pc/playlist.m3u8?wowzasessionid=64000?zgangd
RTHK32,https://rthktv32-live.akamaized.net/hls/live/2036819/RTHKTV32/stream2/streamPlaylist.m3u8
台视新闻,http://38.64.72.148/hls/modn/list/4013/playlist.m3u8
台视新闻,http://38.64.72.148:80/hls/modn/list/4013/chunklist0.m3u8?blog.ntnas.top
民视新闻,http://38.64.72.148/hls/modn/list/4012/playlist.m3u8
TVBS亚洲台,http://38.64.72.148/hls/modn/list/4005/playlist.m3u8
GOODTV好医生,https://dqhxk7sbp7xog.cloudfront.net/hls-live/goodtv/_definst_/liveevent/live-ch9-2.m3u8
GOODTV旅行,https://dqhxk7sbp7xog.cloudfront.net/hls-live/goodtv/_definst_/liveevent/live-ch11-2.m3u8
GOODTV经典音乐河,https://dqhxk7sbp7xog.cloudfront.net/hls-live/goodtv/_definst_/liveevent/live-ch6-2.m3u8
番薯台,http://61.216.67.119:1935/TWHG/E1/chunklist_w70581102.m3u8
人間衛視,https://5ddce30eb4b55.streamlock.net/bltvhd/bltv1/chunklist_w511254805.m3u8
人間衛視,http://61.216.67.119:1935/bltvhd/bltv1/chunklist_w1266569526.m3u
人間衛視,http://61.216.67.119:1935/bltvhd/bltv1/chunklist_w1266569526.m3u8
香港佛陀,https://js1.amtb.cn/liveedge/_definst_/livetv/playlist.m3u8
民视新闻台,http://38.64.72.148:80/hls/modn/list/4012/chunklist0.m3u8
TVBS新聞,http://38.64.72.148:80/hls/modn/list/4006/chunklist1.m3u8
TVBS-Asia,http://38.64.72.148:80/hls/modn/list/4005/chunklist0.m3u8
凤凰资讯,http://playtv-live.ifeng.com:80/live/06OLEEWQKN4.m3u8?zgangd
创世.电视,https://cdn.deepcore.online/hlsme/ctv_hk.m3u8?zgangd
澳门莲花,http://anren.live/HK/BiIOU11uLA.m3u8?zgangd
耀才財經,http://202.69.67.66:443/webcast/bshdlive-mobile/playlist.m3u8
耀才財經,https://v3.mediacast.hk/webcast/bshdlive-pc/playlist.m3u8
耀才財經,http://202.69.67.66:443/webcast/bshdlive-pc/playlist.m3u8?wowzasessionid=64000
東森美洲,http://38.64.72.148:80/hls/modn/list/2015/chunklist1.m3u8
東森美洲,http://38.64.72.148/hls/modn/list/2015/chunklist0.m3u8
TVBS亞洲,http://38.64.72.148/hls/modn/list/4005/chunklist0.m3u8
TVBS亞洲,http://38.64.72.148/hls/modn/list/4005/chunklist1.m3u8
華語電視2,http://38.64.72.148:80/hls/modn/list/4002/chunklist1.m3u8
華語電視3,http://38.64.72.148:80/hls/modn/list/4003/chunklist1.m3u8
亚洲新闻,http://d2e1asnsl7br7b.cloudfront.net/7782e205e72f43aeb4a48ec97f66ebbe/index_4.m3u8
中国环球电视,http://live.cgtn.com/500/prog_index.m3u8
人间卫视,https://5ddce30eb4b55.streamlock.net/bltvhd/bltv1/chunklist_w614428743.m3u8
香港卫视文旅,https://myun-hw-s3.myun.tv/melj80jz/lxx27bol/1551285536499984128.m3u8
CTN,http://58.99.33.16:1935/liveedge17/live_854_3.stream/chunklist.m3u8
FashionTV,http://lb.streaming.sk/fashiontv/stream/chunklist_w1702070444.m3u8
FashionTV,http://lb.streaming.sk/fashiontv/stream/chunklist_w1402273512.m3u8
CGNTV,http://live.cgtn.com/1000/prog_index.m3u8
CGNTV,http://livear.cgtn.com/1000a/prog_index.m3u8
CGNTV,http://livees.cgtn.com/1000e/prog_index.m3u8
CGNTV,http://liveru.cgtn.com/1000r/prog_index.m3u8
CGNTV,https://livedoc.cgtn.com/500d/prog_index.m3u8
Channel News Asia『蓝光』,http://d2e1asnsl7br7b.cloudfront.net/7782e205e72f43aeb4a48ec97f66ebbe/index_5.m3u8
THAIPBS-3,http://thaipbs-live.cdn.byteark.com/live/playlist_480p/index.m3u8
VB,http://live.tv2bornholm.dk/stream/live/chunklist.m3u8
半·新闻,http://live-hls-web-aja.getaj.net/AJA/02.m3u8
俄·IGITV蓝光,http://hls-igi.cdnvideo.ru/igi/igi_hq/playlist.m3u8
法·24台,http://tv.balkanweb.com/news24/livestream/playlist.m3u8
法·时尚,http://lb.streaming.sk/fashiontv/stream/chunklist_w1906011378.m3u8
美·NASA Public Channel,https://ntv1.akamaized.net/hls/live/2014075/NASA-NTV1-HLS/master_2000.m3u8
美·NASA Public Channel,https://ntv2.akamaized.net/hls/live/2013923/NASA-NTV2-HLS/master_2000.m3u8
美·红牛运动,http://rbmn-live.akamaized.net/hls/live/590964/BoRB-AT/master_1660.m3u8
美·红牛运动,http://rbmn-live.akamaized.net/hls/live/590964/BoRB-AT/master_928.m3u8
泰·THAIPBS,http://thaipbs-live.cdn.byteark.com/live-en/playlist_720p/index.m3u8
泰·公共三台,http://thaipbs-live.cdn.byteark.com/live/playlist_1080p/index.m3u8
新加坡,https://d2e1asnsl7br7b.cloudfront.net/7782e205e72f43aeb4a48ec97f66ebbe/index_4.m3u8
越·HBTV,http://hoabinhtvlive.746b3ddb.cdnviet.com/hoabinhtv/playlist.m3u8
NewsmaxTV,http://nmxlive.akamaized.net/hls/live/529965/Live_1/index.m3u8
moviesphere,https://moviesphere-samsung-samsungus.amagi.tv/playlist.m3u8
CanadaOne,http://cdn8.live247stream.com/canadaone/tv/playlist.m3u8
InsightTV,https://insighttv-samsung-canada.amagi.tv/playlist.m3u8
Inwonder,https://inwonder-samsung-canada.amagi.tv/playlist.m3u8
Astrakhan24(Opt-2),http://streaming.astrakhan.ru/astrakhan24/index.m3u8
UniverTV,http://cdn.universmotri.ru/live/hq.sdp/chunklist_w1792531.m3u8
伊拉克-SharqiyaNews,http://ns8.indexforce.com:1935/alsharqiyalive/mystream/playlist.m3u8
RTHK,http://rthktv32-live.akamaized.net/hls/live/2036819/RTHKTV32/master.m3u8
环球电视台,http://zb.xzxwhcb.com:9999/hls/world.m3u8
RTHK32,https://rthktv32-live.akamaized.net/hls/live/2036819/RTHKTV32/master.m3u8
创世电视,https://cdn.deepcore.online/hlsme/ctv_hk_1080.m3u8
新加坡中文台,https://d2e1asnsl7br7b.cloudfront.net/7782e205e72f43aeb4a48ec97f66ebbe/index_4.m3u8?zshijd
好消息综合台,https://dqhxk7sbp7xog.cloudfront.net/hls-live/goodtv/_definst_/liveevent/live-ch1-2.m3u8
TVBS新闻,http://38.64.72.148/hls/modn/list/4006/playlist.m3u8
美国mytime,https://mytime-tcl.amagi.tv/playlist1080-p.m3u8?blog.ntnas.top
NHK World,https://nhkwlive-ojp.akamaized.net/hls/live/2003459/nhkwlive-ojp-en/index_4M.m3u8
BBS佛教广播,http://bbstv.clouducs.com:1935/bbstv-live/livestream/chunklist_w1403706733.m3u8
泰国 ASTV News 1,http://news1.live14.com/stream/news1_hi.m3u8
국악방송,http://mgugaklive.nowcdn.co.kr/gugakvideo/gugakvideo.stream/playlist.m3u8
半岛电视台,http://live-hls-web-aje.getaj.net/AJE/01.m3u8
埃及 Mokameleen TV,http://mn-nl.mncdn.com/mekameleen/smil:mekameleentv.smil/chunklist_b1864000.m3u8?v=787761179
红牛REDBULL TV,https://rbmn-live.akamaized.net/hls/live/590964/BoRB-AT/master_3360.m3u8
ABC新闻频道,http://cms-wowza.lunabyte.io/wbrz-live-1/_definst_/smil:wbrz-live.smil/chunklist_b1300000.m3u8
Weather News,https://movie.mcas.jp/mcas/smil:wn1.smil/master.m3u8
NHK World,https://nhkwlive-ojp.akamaized.net/hls/live/2003459/nhkwlive-ojp-en/index.m3u8
Прямий,http://95.67.21.100/hls/prm_ua_hi/index.m3u8
朝鲜中央台,http://119.77.96.184:1935/chn05/chn05/chunklist_w644291506.m3u8
