{
  "wallpaper": "http://www.kf666888.cn/api/tvbox/img",
  "warningText": "潘兴祝你：观影愉快！",
  "spider": "https://gitlab.com/hero1898/DSZB/-/raw/main/jar/0928.jar?sign=HEawELyUvljhHCgfGefYOZ6DHvaGLMWouC0tIwMkd9E%3D%3A0;md5;02c40490ea14c433b66fcc0ce2f2ed94",
  "lives":[{"group":"redirect","channels":[{"name":"redirect","urls":["proxy://do=live&type=txt&ext=aHR0cHM6Ly9naXRsYWIuY29tL2hlcm8xODk4L0RTWkIvLS9yYXcvbWFpbi9UVjIubTN1"]}]}],
  "rules": [{"host":"*","rule":["default.365yg.com"]},{"host":"dyxs20.com","rule":[".m3u8"]},{"host":"www.agemys.cc","rule":["cdn-tos","obj/tos-cn"]},{"host":"www.sharenice.net","rule":["http.*?/play.{0,3}\\?[^url]{2,8}=.*"]},{"host":"www.sharenice.net","rule":["qianpailive.com","vid="]},{"host":"*","rule":["douyin.com/aweme","video_id="]},{"host":"*","rule":["huoshan.com","/item/video/"]},{"host":"*",     "rule":["http((?!http).){12,}?\\.(m3u8|mp4|flv|avi|mkv|rm|wmv|mpg|m4a)\\?.*"]},{"host":"*","rule":["http((?!http).){12,}\\.(m3u8|mp4|flv|avi|mkv|rm|wmv|mpg|m4a)"]}], 


  "sites": [
    {
      "key": "豆瓣",
      "name": "PX影视 20231220",
      "type": 3,
      "api": "https://gitlab.com/hero1898/DSZB/-/raw/main/js/drpymin2.js",
      "searchable": 1,
      "quickSearch": 1,
      "filterable": 1,
      "ext": "https://gitlab.com/hero1898/DSZB/-/raw/main/js/douban.js"
    },
    {
      "key":"csp_KungFu404",
      "name":"🦊阿里设置",
      "type":3,
      "api":"csp_KungFu404",
      "searchable":1,
      "filterable":0,
      "changeable":0,
      "jar":"https://gitlab.com/hero1898/DSZB/-/raw/main/js/alibaba.jar"
    },
    {
      "key": "新闻时事",
      "name": "🪁新闻时事",
      "type": 3,
      "api": "csp_Bili",
      "searchable": 0,
      "quickSearch": 0,
      "filterable": 1,
      "ext": "https://gitlab.com/hero1898/DSZB/-/raw/main/json/%E6%97%B6%E4%BA%8B%E6%96%B0%E9%97%BB.json?sign=AkRYax82jb9Bb2zmsQtjBG1T6-kL5_K7k3zBWkfl-NI%3D%3A0",
      "spider": "https://gitlab.com/hero1898/DSZB/-/raw/main/jar/520723.jar?sign=K2U3FqRBh-kFNgDJFpxZjZYwxV6EeTlf4QWZ9dPjc8o%3D%3A0"
    },    
    {
      "key": "美食",
      "name": " 🥗吾爱美食",
      "type": 3,
      "api": "csp_Bili",
      "searchable": 0,
      "quickSearch": 0,
      "filterable": 1,
      "ext": "https://gitlab.com/hero1898/DSZB/-/raw/main/json/%E5%90%BE%E7%88%B1%E7%BE%8E%E9%A3%9F1220.json?sign=8AZYYTTMZ8XjyAk_BENuUbWe350zHymzMdrG6fGE2H8%3D%3A0",
      "spider": "https://gitlab.com/hero1898/DSZB/-/raw/main/jar/520723.jar?sign=K2U3FqRBh-kFNgDJFpxZjZYwxV6EeTlf4QWZ9dPjc8o%3D%3A0;md5;226db2fc833312b73b0bf57c7dd41484"    
    },
    {
      "key": "户外",
      "name": "🪁吾爱户外",
      "type": 3,
      "api": "csp_Bili",
      "searchable": 0,
      "quickSearch": 0,
      "filterable": 1,
      "ext": "https://gitlab.com/hero1898/DSZB/-/raw/main/json/%E5%90%BE%E7%88%B1%E6%88%B7%E5%A4%96.json?sign=AkRYax82jb9Bb2zmsQtjBG1T6-kL5_K7k3zBWkfl-NI%3D%3A0",
      "spider": "https://gitlab.com/hero1898/DSZB/-/raw/main/jar/520723.jar?sign=K2U3FqRBh-kFNgDJFpxZjZYwxV6EeTlf4QWZ9dPjc8o%3D%3A0"
    },
    {
      "key": "搭讪",
      "name": "👨🏿‍🤝‍👨🏼吾爱搭讪",
      "type": 3,
      "api": "csp_Bili",
      "searchable": 0,
      "quickSearch": 0,
      "filterable": 1,
      "ext": "https://gitlab.com/hero1898/DSZB/-/raw/main/json/%E5%90%BE%E7%88%B1%E6%90%AD%E8%AE%AA.json?sign=gip9Kawqr484bHHBk7lptxFssHFT6EZyyFiDQ3KzHt8%3D%3A0",
      "spider": "https://gitlab.com/hero1898/DSZB/-/raw/main/jar/520723.jar?sign=K2U3FqRBh-kFNgDJFpxZjZYwxV6EeTlf4QWZ9dPjc8o%3D%3A0"
    },
    {
      "key": "搭配",
      "name": "👠吾爱搭配",
      "type": 3,
      "api": "csp_Bili",
      "searchable": 0,
      "quickSearch": 0,
      "filterable": 1,
      "ext": "https://gitlab.com/hero1898/DSZB/-/raw/main/json/%E5%90%BE%E7%88%B1%E6%90%AD%E9%85%8D.json?sign=JOkB1eN1Hho8MwGLZjaTqNUPrLDhCBvgv6yNiUqaRdQ%3D%3A0",
      "spider": "https://gitlab.com/hero1898/DSZB/-/raw/main/jar/520723.jar?sign=K2U3FqRBh-kFNgDJFpxZjZYwxV6EeTlf4QWZ9dPjc8o%3D%3A0"
    },
    {
      "key": "解说",
      "name": "🎬吾爱电影解说",
      "type": 3,
      "api": "csp_Bili",
      "searchable": 0,
      "quickSearch": 0,
      "filterable": 1,
      "ext": "https://gitlab.com/hero1898/DSZB/-/raw/main/json/%E5%BD%B1%E8%A7%86%E8%A7%A3%E8%AF%B4.json?sign=ZgoiPxJXGAXlWnLNErDJweGcfKoXnVdlm0hIlJvCTac%3D%3A0",
      "spider": "https://gitlab.com/hero1898/DSZB/-/raw/main/jar/520723.jar?sign=K2U3FqRBh-kFNgDJFpxZjZYwxV6EeTlf4QWZ9dPjc8o%3D%3A0"
    },
    {
      "key": "体育",
      "name": "🏂吾爱体育",
      "type": 3,
      "api": "csp_Bili",
      "searchable": 0,
      "quickSearch": 0,
      "filterable": 1,
      "ext": "https://gitlab.com/hero1898/DSZB/-/raw/main/json/%E5%90%BE%E7%88%B1%E4%BD%93%E8%82%B2.m3u?sign=-GBwQ-3ksdyk3lX7c7JOuLvMaBRX95zIL9PUjPPImsM%3D%3A0",
      "spider": "https://gitlab.com/hero1898/DSZB/-/raw/main/jar/520723.jar?sign=K2U3FqRBh-kFNgDJFpxZjZYwxV6EeTlf4QWZ9dPjc8o%3D%3A0"
    },
    {
      "key": "足球",
      "name": "⚽吾爱足球",
      "type": 3,
      "api": "csp_Bili",
      "searchable": 0,
      "quickSearch": 0,
      "filterable": 1,
      "ext": "https://gitlab.com/hero1898/DSZB/-/raw/main/json/%E7%90%83%E6%98%9F-%E5%93%94%E5%93%A90721.json?sign=VMaEC4RO2aBcskY1fgOuhEtfG88uQpiwN1DyjYZGPiE%3D%3A0",
      "spider": "https://gitlab.com/hero1898/DSZB/-/raw/main/jar/520723.jar?sign=K2U3FqRBh-kFNgDJFpxZjZYwxV6EeTlf4QWZ9dPjc8o%3D%3A0"
    },
    {
      "key": "球类",
      "name": "⚽⚾🏀🏐🏈",
      "type": 3,
      "api": "csp_Bili",
      "searchable": 0,
      "quickSearch": 0,
      "filterable": 1,
      "ext": "https://gitlab.com/hero1898/DSZB/-/raw/main/json/%E5%90%BE%E7%88%B1%E4%BD%93%E8%82%B20811.m3u?sign=7_RiK9ou54Do_u6kRgkj3f2VN76-Cd2Zq9865eNXI2Q%3D%3A0",
      "spider": "https://gitlab.com/hero1898/DSZB/-/raw/main/jar/520723.jar?sign=K2U3FqRBh-kFNgDJFpxZjZYwxV6EeTlf4QWZ9dPjc8o%3D%3A0"
    },

    {
      "key": "棋牌",
      "name": "🎲吾爱棋牌",
      "type": 3,
      "api": "csp_Bili",
      "searchable": 0,
      "quickSearch": 0,
      "filterable": 1,
      "pwd": "50905d7b2216bfeccb5b41016357176b",
      "ext": "https://gitlab.com/hero1898/DSZB/-/raw/main/json/%E5%90%BE%E7%88%B1%E6%A3%8B%E7%89%8C0806.m3u?sign=O6sXUxVC6QET_CvmtKwy18VlNi9GTyHWVNo91buKMbc%3D%3A0",
      "spider": "https://gitlab.com/hero1898/DSZB/-/raw/main/jar/520723.jar?sign=K2U3FqRBh-kFNgDJFpxZjZYwxV6EeTlf4QWZ9dPjc8o%3D%3A0"
    },
    {
      "key": "舞蹈",
      "name": "💃吾爱舞蹈",
      "type": 3,
      "api": "csp_Bili",
      "searchable": 0,
      "quickSearch": 0,
      "filterable": 1,
      "ext": "https://gitlab.com/hero1898/DSZB/-/raw/main/json/%E5%90%BE%E7%88%B1%E8%88%9E%E8%B9%88.json?sign=E9PR-_2s_wEokfhY9mh8NMGPnf7iwyItONSu421JwpM%3D%3A0",
      "spider": "https://gitlab.com/hero1898/DSZB/-/raw/main/jar/520723.jar?sign=K2U3FqRBh-kFNgDJFpxZjZYwxV6EeTlf4QWZ9dPjc8o%3D%3A0"
    },
    {
      "key": "歌舞",
      "name": "👯吾爱印度歌舞",
      "type": 3,
      "api": "csp_Bili",
      "searchable": 0,
      "quickSearch": 0,
      "filterable": 1,
      "ext": "https://gitlab.com/hero1898/DSZB/-/raw/main/json/%E5%8D%B0%E5%BA%A6%E6%AD%8C%E8%88%9E.json?sign=objRswLsG5JDNbAai3-2iJ8lf4yb0CjV3aqE1fD9_5g%3D%3A0",
      "spider": "https://gitlab.com/hero1898/DSZB/-/raw/main/jar/520723.jar?sign=K2U3FqRBh-kFNgDJFpxZjZYwxV6EeTlf4QWZ9dPjc8o%3D%3A0"
    },
    {
      "key": "乐器",
      "name": "🎻吾爱乐器",
      "type": 3,
      "api": "csp_Bili",
      "searchable": 0,
      "quickSearch": 0,
      "filterable": 1,
      "ext": "https://gitlab.com/hero1898/DSZB/-/raw/main/json/%E5%90%BE%E7%88%B1%E4%B9%90%E5%99%A8.json?sign=z4Y7NjVCJaL5btPsV1J6EUBINaJ79WGmTzh_mjJlM-A%3D%3A0",
      "spider": "https://gitlab.com/hero1898/DSZB/-/raw/main/jar/520723.jar?sign=K2U3FqRBh-kFNgDJFpxZjZYwxV6EeTlf4QWZ9dPjc8o%3D%3A0"
    },
    {
      "key": "演唱会自定义",
      "name": "🎤吾爱演唱会",
      "type": 3,
      "api": "csp_Bili",
      "searchable": 0,
      "quickSearch": 0,
      "filterable": 1,
      "ext": "https://gitlab.com/hero1898/DSZB/-/raw/main/json/%E6%BC%94%E5%94%B1%E4%BC%9A-%E5%93%94%E5%93%A90723.json?sign=DDKIY_ztUCVB6BpF3yqKBbzoE6z7HLEIopBIM2f5y0M%3D%3A0",
      "spider": "https://gitlab.com/hero1898/DSZB/-/raw/main/jar/520723.jar?sign=K2U3FqRBh-kFNgDJFpxZjZYwxV6EeTlf4QWZ9dPjc8o%3D%3A0"
    },
    {
      "key": "MV",
      "name": "🎞吾爱MV",
      "type": 3,
      "api": "csp_Bili",
      "searchable": 0,
      "quickSearch": 0,
      "filterable": 1,
      "ext": "https://gitlab.com/hero1898/DSZB/-/raw/main/json/MTV-%E5%93%94%E5%93%A90723.json?sign=MssMqfKTRURsrikq-zkJpo5eDMCplQp6nH7JbFESra8%3D%3A0",
      "spider": "https://gitlab.com/hero1898/DSZB/-/raw/main/jar/520723.jar?sign=K2U3FqRBh-kFNgDJFpxZjZYwxV6EeTlf4QWZ9dPjc8o%3D%3A0"
    },
    {
      "key": "Bili",
      "name": "🅱︎吾爱哔哩",
      "type": 3,
      "api": "csp_Bili",
      "searchable": 0,
      "quickSearch": 0,
      "filterable": 1,
      "ext": "https://gitlab.com/hero1898/DSZB/-/raw/main/json/%E5%93%94%E5%93%A90723.json?sign=EPgtYYzwyHhOatiqgldi8BLu4sO8V85-FlmJl99KfcM%3D%3A0",
      "spider": "https://gitlab.com/hero1898/DSZB/-/raw/main/jar/520723.jar?sign=K2U3FqRBh-kFNgDJFpxZjZYwxV6EeTlf4QWZ9dPjc8o%3D%3A0"
    },
    {
      "key": "UP主",
      "name": "♀♂吾爱UP主",
      "type": 3,
      "api": "csp_Bili",
      "searchable": 0,
      "quickSearch": 0,
      "filterable": 1,
      "ext": "https://gitlab.com/hero1898/DSZB/-/raw/main/json/%E5%90%BE%E7%88%B1UP%E4%B8%BB%E5%90%88%E9%9B%86.json?sign=DeQdPrG46oni5nhoRk_RENrU0Mp6jGaD6jMUFh_ung4%3D%3A0",
      "spider": "https://gitlab.com/hero1898/DSZB/-/raw/main/jar/520723.jar?sign=K2U3FqRBh-kFNgDJFpxZjZYwxV6EeTlf4QWZ9dPjc8o%3D%3A0"
    },
    {
      "key": "戏曲自定义",
      "name": "💖吾爱戏曲",
      "type": 3,
      "api": "csp_Bili",
      "searchable": 0,
      "quickSearch": 0,
      "filterable": 1,
      "ext": "https://gitlab.com/hero1898/DSZB/-/raw/main/json/%E6%88%8F%E6%9B%B20723.json?sign=ngeZFFyT8EO0PacgodQnJmLlFv1K9VIKt6e9jP1TLpo%3D%3A0",
      "spider": "https://gitlab.com/hero1898/DSZB/-/raw/main/jar/520723.jar?sign=K2U3FqRBh-kFNgDJFpxZjZYwxV6EeTlf4QWZ9dPjc8o%3D%3A0"
    },
    {
      "key": "Aid",
      "name": "🚑吾爱急救",
      "type": 3,
      "api": "csp_FirstAid",
      "searchable": 0,
      "changeable": 0,
      "style": {
        "type": "rect",
        "ratio": 3.8
      }
    },
    {
      "key": "牙齿",
      "name": "🐿吾爱牙齿",
      "type": 3,
      "api": "csp_Bili",
      "searchable": 0,
      "quickSearch": 0,
      "filterable": 1,
      "ext": "https://gitlab.com/hero1898/DSZB/-/raw/main/json/%E5%90%BE%E7%88%B1%E7%89%99%E9%BD%BF.json?sign=jyFR9Jrtu-5NnzTl9bKKcyhpXzgd1Byji7sdM9VVULk%3D%3A0",
      "spider": "https://gitlab.com/hero1898/DSZB/-/raw/main/jar/520723.jar?sign=K2U3FqRBh-kFNgDJFpxZjZYwxV6EeTlf4QWZ9dPjc8o%3D%3A0"
    },
    {
      "key": "春节",
      "name": "💥吾爱春节",
      "type": 3,
      "api": "csp_Bili",
      "searchable": 0,
      "quickSearch": 0,
      "filterable": 1,
      "ext": "https://gitlab.com/hero1898/DSZB/-/raw/main/json/%E5%90%BE%E7%88%B1%E6%98%A5%E8%8A%82.json",
      "spider": "https://gitlab.com/hero1898/DSZB/-/raw/main/jar/520723.jar?sign=K2U3FqRBh-kFNgDJFpxZjZYwxV6EeTlf4QWZ9dPjc8o%3D%3A0"
    },
    {
      "key": "EXCEL",
      "name": "💹吾爱Excel",
      "type": 3,
      "api": "csp_Bili",
      "searchable": 0,
      "quickSearch": 0,
      "filterable": 1,
      "ext": "https://gitlab.com/hero1898/DSZB/-/raw/main/json/Excel%E6%95%99%E7%A8%8B.json?sign=3a_WkAa1xg59fzB5H2lsanfqcZuUjDsXGGMQZV7nTtw%3D%3A0",
      "spider": "https://gitlab.com/hero1898/DSZB/-/raw/main/jar/520723.jar?sign=K2U3FqRBh-kFNgDJFpxZjZYwxV6EeTlf4QWZ9dPjc8o%3D%3A0"
    },
    {
      "key": "PS",
      "name": "🖌吾爱PS",
      "type": 3,
      "api": "csp_Bili",
      "searchable": 0,
      "quickSearch": 0,
      "filterable": 1,
      "ext": "https://gitlab.com/hero1898/DSZB/-/raw/main/json/%E5%90%BE%E7%88%B1PS.json?sign=D0w9SL-S30iOiTDUeRxAT8wPAuFA-XHUcqkwjWqTipA%3D%3A0",
      "spider": "https://gitlab.com/hero1898/DSZB/-/raw/main/jar/520723.jar?sign=K2U3FqRBh-kFNgDJFpxZjZYwxV6EeTlf4QWZ9dPjc8o%3D%3A0"
    },
    {
      "key": "外语",
      "name": "👄吾爱外语",
      "type": 3,
      "api": "csp_Bili",
      "searchable": 0,
      "quickSearch": 0,
      "filterable": 1,
      "ext": "https://gitlab.com/hero1898/DSZB/-/raw/main/json/%E5%90%BE%E7%88%B1%E5%A4%96%E8%AF%AD.json?sign=_YbE-avvgf2pfwBJaT7bSJwdJCz9LSN7W0Q9qRjumMQ%3D%3A0",
      "spider": "https://gitlab.com/hero1898/DSZB/-/raw/main/jar/520723.jar?sign=K2U3FqRBh-kFNgDJFpxZjZYwxV6EeTlf4QWZ9dPjc8o%3D%3A0"
    },
    {
      "key": "学堂",
      "name": "📝吾爱学堂",
      "type": 3,
      "api": "csp_Bili",
      "searchable": 0,
      "quickSearch": 0,
      "filterable": 1,
      "ext": "https://gitlab.com/hero1898/DSZB/-/raw/main/json/%E5%90%BE%E7%88%B1%E5%AD%A6%E5%A0%820804.m3u?sign=m0FU-h5ZHcb8m0mrj8K1jolIeMUfxttQL3bjLTrIQJg%3D%3A0",
      "spider": "https://gitlab.com/hero1898/DSZB/-/raw/main/jar/520723.jar?sign=K2U3FqRBh-kFNgDJFpxZjZYwxV6EeTlf4QWZ9dPjc8o%3D%3A0"
    },
    {
      "key": "吾爱学堂小学",
      "name": "📚吾爱学堂小学",
      "type": 3,
      "api": "csp_Bili",
      "searchable": 0,
      "quickSearch": 0,
      "filterable": 1,
      "ext": "https://gitlab.com/hero1898/DSZB/-/raw/main/json/%E5%93%94%E5%93%A9%E5%93%94%E5%93%A9%E5%B0%8F%E5%AD%A6.json?sign=ottDC63hhG794F1nESHvdE-qqBb3mz7vO6ZqzRCUk6g%3D%3A0",
      "spider": "https://gitlab.com/hero1898/DSZB/-/raw/main/jar/520723.jar?sign=K2U3FqRBh-kFNgDJFpxZjZYwxV6EeTlf4QWZ9dPjc8o%3D%3A0"
    },
    {
      "key": "吾爱学堂初中",
      "name": "📓吾爱学堂初中",
      "type": 3,
      "api": "csp_Bili",
      "searchable": 0,
      "quickSearch": 0,
      "filterable": 1,
      "ext": "https://gitlab.com/hero1898/DSZB/-/raw/main/json/%E5%93%94%E5%93%A9%E5%93%94%E5%93%A9%E5%88%9D%E4%B8%AD.json?sign=R1JCtzNPS0aiXYcFwih52kjPzgUcrQWq30s1mMg4ig0%3D%3A0",
      "spider": "https://gitlab.com/hero1898/DSZB/-/raw/main/jar/520723.jar?sign=K2U3FqRBh-kFNgDJFpxZjZYwxV6EeTlf4QWZ9dPjc8o%3D%3A0"
    },
    {
      "key": "吾爱学堂高中",
      "name": "📒吾爱学堂高中",
      "type": 3,
      "api": "csp_Bili",
      "searchable": 0,
      "quickSearch": 0,
      "filterable": 1,
      "ext": "https://gitlab.com/hero1898/DSZB/-/raw/main/json/%E5%93%94%E5%93%A9%E5%93%94%E5%93%A9%E9%AB%98%E4%B8%AD.json?sign=L-dziBVI37SAtdNfUR547dylvCxhuwkmi1J1qA4EFxI%3D%3A0",
      "spider": "https://gitlab.com/hero1898/DSZB/-/raw/main/jar/520723.jar?sign=K2U3FqRBh-kFNgDJFpxZjZYwxV6EeTlf4QWZ9dPjc8o%3D%3A0"
    },
    {
      "key": "吾爱学堂高考",
      "name": "🔬吾爱学堂高考",
      "type": 3,
      "api": "csp_Bili",
      "searchable": 0,
      "quickSearch": 0,
      "filterable": 1,
      "ext": "https://gitlab.com/hero1898/DSZB/-/raw/main/json/%E5%93%94%E5%93%A9%E5%93%94%E5%93%A9%E9%AB%98%E8%80%83.json?sign=lD2DA8pGV9tw7DKYRqaQh9sy6aQnDcsR69ooAeCfpHc%3D%3A0",
      "spider": "https://gitlab.com/hero1898/DSZB/-/raw/main/jar/520723.jar?sign=K2U3FqRBh-kFNgDJFpxZjZYwxV6EeTlf4QWZ9dPjc8o%3D%3A0"
    },
    {
      "key": "主力源",
      "name": "🚄索尼影视",
      "type": 1,
      "api": "https://suoniapi.com/api.php/provide/vod/?ac=list",
      "playUrl": "",
      "searchable": 1,
      "quickSearch": 1,
      "filterable": 1,
      "categories": [
        "科幻片",
        "动作片",
        "恐怖片",
        "纪录片",
        "爱情片",
        "战争片",
        "剧情片",
        "喜剧片",
        "大陆剧",
        "港澳剧",
        "台湾剧",
        "欧美剧",
        "动漫电影",
        "韩剧",
        "日剧",
        "泰剧"
      ]
    },
    {
      "key": "暴风采集",
      "name": "🌪暴风影音",
      "type": 1,
      "api": "https://app.bfzyapi.com/api.php/provide/vod/",
      "playUrl": "",
      "categories": [
        "国产剧",
        "国产动漫",
        "动作片",
        "科幻片",
        "剧情片",
        "喜剧片",
        "爱情片",
        "恐怖片",
        "战争片",
        "香港剧",
        "台湾剧",
        "日本剧",
        "欧美剧",
        "泰国剧",
        "日本动漫",
        "综艺频道",
        "大陆综艺",
        "港台综艺",
        "日本综艺",
        "新马泰综艺",
        "纪录片"
      ]
    },
    {
      "key": "新哔哩",
      "name": "🌤︎新哔哩",
      "type": 3,
      "api": "csp_Bili",
      "searchable": 0,
      "quickSearch": 0,
      "filterable": 1,
      "ext": "https://gitlab.com/hero1898/DSZB/-/raw/main/json/%E6%96%B0%E5%93%94%E5%93%A9.json?sign=QazybKXwzmWoHOgB7KqgvRUZa7lYsZEsGRxUkCPQXmY%3D%3A0",
      "spider": "https://gitlab.com/hero1898/DSZB/-/raw/main/jar/520723.jar?sign=K2U3FqRBh-kFNgDJFpxZjZYwxV6EeTlf4QWZ9dPjc8o%3D%3A0"
    },
    {
      "key": "OXS",
      "name": "🚆O先生影视",
      "type": 3,
      "api": "csp_XBPQ",
      "searchable": 1,
      "quickSearch": 1,
      "filterable": 1,
      "ext": {
        "分类url": "https://www.osirmovie.com/vodshow/{cateId}-{area}-{by}-{class}-----{catePg}---{year}.html",
        "分类": "电影$1#电视剧$2#综艺$3#动漫$4"
      }
    },
    {
      "key": "蜗牛弹幕",
      "name": "🐌┃蜗牛┃影视",
      "type": 3,
      "api": "csp_XBPQ",
      "ext": {
        "简介": "class=\"video-info-item video-info-content vod_content\">&&</span>",
        "数组": "class=\"module-item-text\"&&class=\"loading\"",
        "线路数组": "data-dropdown-value=&&</div>",
        "线路标题": "<span>&&</small>[替换:</span><small>>>共]+集",
        "副标题": " class=\"module-item-text\">&&</div>",
        "分类": "电影$1#日韩剧$21#海外剧$2#动漫$20",
        "分类url": "https://v.wuxivlog.cn/index.php/vod/show/area/{area}/by/{by}/class/{class}/id/{cateId}/lang/{lang}/page/{catePg}/year/{year}.html"
      }
    },
    {
      "key": "快帆",
      "name": "⛵┃快帆┃影视",
      "type": 1,
      "api": "https://api.kuaifan.tv/api.php/provide/vod",
      "categories": [
        "国产剧",
        "香港剧",
        "台湾剧",
        "韩国剧",
        "日本剧",
        "欧美剧",
        "动作片",
        "动画片",
        "短片",
        "喜剧片",
        "爱情片",
        "科幻片",
        "古装片",
        "历史片",
        "大陆综艺",
        "港台综艺",
        "日韩综艺",
        "国产动漫",
        "欧美动漫",
        "日本动漫"
      ]
    },
    {
      "key": "益达影视",
      "name": "🌝┃益达┃影视",
      "type": 3,
      "api": "csp_AppYsV2",
      "searchable": 1,
      "quickSearch": 1,
      "filterable": 1,
      "ext": "https://myd666.tv/lvdou_api.php/v1.vod"
    },
    {
      "key": "七七",
      "name": "🌈┃七七┃影视",
      "type": 3,
      "api": "csp_Kunyu77",
      "searchable": 1,
      "quickSearch": 1,
      "filterable": 1
    },
    {
      "key": "csp_Nmys",
      "name": "🌾┃农民┃影视",
      "type": 3,
      "api": "csp_Nmys",
      "ext": "https://agit.ai/fantaiying/fty/raw/branch/master/json/nmys.json"
    },
    {
      "key": "csp_DiDuan",
      "name": "⏮️┃低端┃影视",
      "type": 3,
      "api": "csp_Ddrk",
      "searchable": 1,
      "quickSearch": 1,
      "filterable": 0
    },
    {
      "key": "厂长",
      "name": "🏭┃厂长┃影视",
      "type": 3,
      "api": "csp_Czsapp",
      "searchable": 1,
      "quickSearch": 1,
      "filterable": 1,
      "playerType": 2,
      "ext": "https://cz01.cc/"
    },
    {
      "key": "csp_FanYY",
      "name": "🧸┃玩偶┃影视",
      "type": 3,
      "api": "csp_WoGG",
      "searchable": 1,
      "quickSearch": 1,
      "filterable": 1,
      "ext": "https://gitlab.com/hero1898/DSZB/-/raw/main/token.txt$$$https://wogg.xyz/"
    },
    {
      "key": "csp_AppMr",
      "name": "👻┃明明┃影视",
      "type": 3,
      "api": "csp_AppMr",
      "searchable": 1,
      "quickSearch": 1,
      "filterable": 1
    },
    {
      "key": "奇奇",
      "name": "🐭┃迷迷┃影视",
      "type": 3,
      "api": "csp_AppYsV2",
      "playerType": "2",
      "ext": "http://www.miniku.cc/xgapp.php/v1/",
      "searchable": 1,
      "quickSearch": 1,
      "filterable": 1
    },
    {
      "key": "爱迪",
      "name": "💡┃爱迪┃影视",
      "type": 3,
      "api": "csp_AppYsV2",
      "searchable": 1,
      "quickSearch": 1,
      "filterable": 1,
      "playerType": 2,
      "ext": "https://api123.adys.app/xgapp.php/v3/"
    },
    {
      "key": "Kuaikan",
      "name": "👀┃快看┃影视",
      "type": 3,
      "api": "csp_Kuaikan",
      "searchable": 1,
      "quickSearch": 1,
      "filterable": 1
    },
    {
      "key": "飞速",
      "name": "🚄┃影探┃影视",
      "type": 3,
      "api": "csp_YTVIP",
      "searchable": 1,
      "quickSearch": 1,
      "filterable": 1,
      "ext": "vip.lyyytv.cn"
    },
    {
      "key": "csp_Lib",
      "name": "💫┃Lib  ┃影视",
      "type": 3,
      "api": "csp_Libvio",
      "searchable": 1,
      "quickSearch": 1,
      "filterable": 0,
      "playerType": 2,
      "ext": "https://www.libvio.fun/"
    },
    {
      "key": "鸭鸭",
      "name": "🦆┃鸭鸭┃影视",
      "type": 3,
      "api": "csp_AppYsV2",
      "searchable": 1,
      "quickSearch": 1,
      "filterable": 1,
      "ext": "https://yayayaaapp.ynf.icu/api.php/app/"
    },
    {
      "key": "drpy_js_奇珍异兽",
      "name": "🐨┃爱妻┃官源",
      "type": 3,
      "api": "http://alist.xn--z7x900a.love:63/ddrpy2.m.js",
      "ext": "http://alist.xn--z7x900a.love:63/爱奇.js"
    },
    {
      "key": "Qtv",
      "name": "🐧┃鹅鹅┃官源",
      "type": 3,
      "api": "csp_Qtv",
      "searchable": 1,
      "quickSearch": 1,
      "filterable": 1
    },
    {
      "key": "csp_SP360",
      "name": "📺┃三六┃官源",
      "type": 3,
      "api": "csp_XBPQ",
      "searchable": 1,
      "quickSearch": 1,
      "filterable": 1,
      "ext": "http://我不是.肥猫.love:63/json/360影视.json"
    },
    {
      "key": "MGT",
      "name": "🍋┃果果┃官源",
      "type": 3,
      "api": "csp_Mtv",
      "searchable": 1,
      "quickSearch": 1,
      "filterable": 1
    },
    {
      "key": "csp_Ysgc",
      "name": "🎥┃影视┃工厂",
      "type": 3,
      "api": "csp_Ysgc",
      "searchable": 1,
      "quickSearch": 1,
      "filterable": 1,
      "ext": "https://www.ysgc.fun"
    },
    {
      "key": "蓝猫动漫",
      "name": "🌊┃蓝猫┃动漫",
      "type": 3,
      "api": "csp_XBPQ",
      "ext": "分类:日漫$1#国漫$2#剧场$3#美漫$4#少儿$5,分类url:https://www.lmfun.vip/vodshow/area/{area}/by/{by}/class/{class}/id/{cateId}/page/{catePg}/year/{year}.html"
    },
    {
      "key": "csp_Ying",
      "name": "🌸┃樱花┃动漫",
      "type": 3,
      "api": "csp_Ying",
      "searchable": 1,
      "quickSearch": 1,
      "filterable": 1
    },
    {
      "key": "csp_Anime1",
      "name": "💀┃日本┃动漫",
      "type": 3,
      "api": "csp_Anime1",
      "searchable": 1,
      "quickSearch": 1,
      "filterable": 1
    },
    {
      "key": "csp_search_七夜",
      "name": "👴┃七夜┃搜索",
      "type": 3,
      "api": "csp_Dovx",
      "searchable": 1,
      "quickSearch": 1,
      "filterable": 0,
      "ext": "https://gitlab.com/hero1898/DSZB/-/raw/main/token.txt"
    },
    {
      "key": "csp_search_PanSearch",
      "name": "🗂️┃盘搜┃搜索",
      "type": 3,
      "api": "csp_PanSearch",
      "searchable": 1,
      "quickSearch": 1,
      "filterable": 0,
      "ext": "https://gitlab.com/hero1898/DSZB/-/raw/main/token.txt"
    },
    {
      "key": "csp_search_Yisou",
      "name": "🐏┃易搜┃搜索",
      "type": 3,
      "api": "csp_YiSo",
      "searchable": 1,
      "quickSearch": 1,
      "filterable": 0,
      "playerType": 1,
      "ext": "https://gitlab.com/hero1898/DSZB/-/raw/main/token.txt"
    },
    {
      "key": "csp_search_Zhaozy",
      "name": "🐑┃资源┃搜索",
      "type": 3,
      "api": "csp_Zhaozy",
      "searchable": 1,
      "quickSearch": 0,
      "filterable": 0,
      "playerType": 1,
      "ext": "https://gitlab.com/hero1898/DSZB/-/raw/main/token.txt$$$feimao$$$123456"
    },
    {
      "key": "csp_search_Upyunso",
      "name": "🐐┃云搜┃搜索",
      "type": 3,
      "api": "csp_UpYun",
      "searchable": 1,
      "quickSearch": 1,
      "filterable": 0,
      "playerType": 1,
      "ext": "https://gitlab.com/hero1898/DSZB/-/raw/main/token.txt"
    },
    {
      "key": "Wogg",
      "name": "❤️4K┃阿里云盘扫码",
      "type": 3,
      "style": {
        "type": "rect",
        "ratio": 1.597
      },
      "jar": "https://gitlab.com/hero1898/DSZB/-/raw/main/jar/pg.jar",
      "api": "csp_Wogg",
      "searchable": 1,
      "quickSearch": 1,
      "filterable": 1,
      "ext": "https://gitlab.com/hero1898/DSZB/-/raw/main/token.txt$$$https://wogg.xyz/"
    },
    {
      "key": "csp_search_Alips",
      "name": "🦌┃盘搜┃搜索",
      "type": 3,
      "api": "csp_PanSou",
      "searchable": 1,
      "quickSearch": 1,
      "filterable": 0,
      "playerType": 1,
      "ext": "https://gitlab.com/hero1898/DSZB/-/raw/main/token.txt"
    },
    {
      "key": "csp_BBB",
      "name": "🅱┃哔哩┃合集",
      "type": 3,
      "api": "csp_Bili",
      "searchable": 1,
      "quickSearch": 0,
      "ext": "http://我不是.肥猫.love:63/json/bili.json"
    },
    {
      "key": "csp_戏曲",
      "name": "🅱┃哔哩┃戏曲",
      "type": 3,
      "api": "csp_Bili",
      "searchable": 1,
      "quickSearch": 0,
      "ext": "http://我不是.肥猫.love:63/json/戏曲.json"
    },
    {
      "key": "演唱会",
      "name": "🅱┃哔哩┃音乐",
      "type": 3,
      "api": "csp_Bili",
      "searchable": 0,
      "quickSearch": 0,
      "ext": "http://我不是.肥猫.love:63/json/ych.json"
    },
    {
      "key": "csp_XYQBiu_聚合短视频",
      "name": "📽️┃视频┃聚合",
      "type": 3,
      "api": "csp_XYQBiu",
      "searchable": 0,
      "quickSearch": 0,
      "filterable": 0,
      "ext": "http://我不是.肥猫.love:63/json/短视频.json"
    },
    {
      "key": "儿童",
      "name": "📚┃少儿┃教育",
      "type": 3,
      "api": "csp_Bili",
      "searchable": 1,
      "quickSearch": 1,
      "filterable": 1,
      "ext": "http://52bsj.vip:81/api/v3/file/get/61578/%E5%B0%91%E5%84%BF%E6%95%99%E8%82%B2.json?sign=3BlFTWj-rXJPPgJB6eQ1_C0odRnDCaW28cr8afXaO_I%3D%3A0"
    },
    {
      "key": "小学",
      "name": "📚┃小学┃课堂",
      "type": 3,
      "api": "csp_Bili",
      "searchable": 1,
      "quickSearch": 1,
      "filterable": 1,
      "ext": "http://52bsj.vip:81/api/v3/file/get/61579/%E5%B0%8F%E5%AD%A6%E8%AF%BE%E5%A0%82.json?sign=Oqbf9547dxbhVTf07kdHsuNZgzIWH2UT9uY7zRbTA5M%3D%3A0"
    },
    {
      "key": "初中",
      "name": "📚┃初中┃课堂",
      "type": 3,
      "api": "csp_Bili",
      "searchable": 1,
      "quickSearch": 1,
      "filterable": 1,
      "ext": "http://52bsj.vip:81/api/v3/file/get/61581/%E5%88%9D%E4%B8%AD%E8%AF%BE%E5%A0%82.json?sign=7Jxqd0BzuIm-2OvXZyoRasDb1P3OojENYkxLf6bhLr0%3D%3A0"
    },
    {
      "key": "高中",
      "name": "📚┃高中┃课堂",
      "type": 3,
      "api": "csp_Bili",
      "searchable": 1,
      "quickSearch": 1,
      "filterable": 1,
      "ext": "http://52bsj.vip:81/api/v3/file/get/61580/%E9%AB%98%E4%B8%AD%E8%AF%BE%E5%A0%82.json?sign=ESNTJf_EMO0ch_J5j-kV35jFLeg1GvG4VJjUqW2DJCc%3D%3A0"
    },
    {
      "key": "push_agent",
      "name": "▶┃推送┃磁力",
      "type": 3,
      "api": "csp_Push",
      "searchable": 0,
      "quickSearch": 0,
      "filterable": 0,
      "playerType": 1,
      "ext": "https://gitlab.com/hero1898/DSZB/-/raw/main/token.txt+4k|auto|fhd"
    },
    {
      "key": "alist",
      "name": "🍰┃ALIST┃网盘",
      "type": 3,
      "api": "csp_AList",
      "searchable": 1,
      "quickSearch": 1,
      "filterable": 1,
      "ext": "https://gitlab.com/hero1898/DSZB/-/raw/main/alist.json?sign=klTSIgCkIgmU3bBJ5aLesnbQ5dqyxNvWpfl7LMRLtn0%3D%3A0"
    }
  ],

  "parses": [
    {
      "name": "解析聚合",
      "type": 3,
      "url": "Demo"
    },
    {
      "name": "Web聚合",
      "type": 3,
      "url": "Web"
    },
    {
      "name": "Json轮询",
      "type": 2,
      "url": "Sequence"
    },
    {
      "name": "Json并发",
      "type": 2,
      "url": "Parallel"
    },
    {
      "name": "但行好事",
      "type": 1,
      "url": "http://jx.fuqizhishi.com:63/接口地址www.肥猫.love/肥猫专用.php?url="
    },
    {
      "name": "莫问前程",
      "type": 1,
      "url": "http://27.124.4.42:4567/jhjson/ceshi.php?url="
    },
    {
      "name": "左岸解析",
      "type": 1,
      "url": "http://110.42.2.247:880/analysis/json/?uid=2449&my=acfgikquvzFGJRW459&url="
    },
    {
      "name": "星辰云解析",
      "type": 1,
      "url": "https://json.key521.cn/api/?key=df27d9ca9ec97e22c47f8565a50aa6f5&url="
    },
    {
      "name": "小新解析",
      "type": 1,
      "url": "http://xiaoxin.1080p.fun/home/api?type=ys&uid=91198&key=bhntuwyAJLMTUY1478&url="
    },
    {
      "name": "小鱼解析",
      "type": 1,
      "url": "http://json.84jia.com/home/api?type=ys&uid=335253&key=fjklpqsyCDGMNQRWX8&url="
    },
    {
      "name": "夜曲解析",
      "type": 1,
      "url": "http://xhww.fun:63/小米特别爱肥猫.php?url=",
      "ext": {
        "flag": [
          "qq",
          "腾讯",
          "qiyi",
          "爱奇艺",
          "奇艺",
          "youku",
          "优酷",
          "sohu",
          "搜狐",
          "letv",
          "乐视",
          "mgtv",
          "芒果",
          "CL4K",
          "renrenmi",
          "ltnb",
          "bilibili",
          "1905",
          "xigua",
          "nongmin",
          "CL4K",
          "xfyun",
          "ffm3u8",
          "lzm3u8",
          "netease",
          "pgyer",
          "TD",
          "qzone",
          "FY",
          "ppayun",
          "Feiyun",
          "zhibo"
        ],
        "header": {
          "User-Agent": "Dalvik/2.1.0 (Linux; U; Android 10; PDHM00 Build/QKQ1.191222.002)"
        }
      }
    }
  ],
  "flags": [
    "youku",
    "优酷",
    "优 酷",
    "优酷视频",
    "qq",
    "腾讯",
    "腾 讯",
    "腾讯视频",
    "iqiyi",
    "qiyi",
    "奇艺",
    "爱奇艺",
    "爱 奇 艺",
    "m1905",
    "xigua",
    "letv",
    "leshi",
    "乐视",
    "乐 视",
    "sohu",
    "搜狐",
    "搜 狐",
    "搜狐视频",
    "tudou",
    "pptv",
    "mgtv",
    "芒果",
    "imgo",
    "芒果TV",
    "芒 果 T V",
    "bilibili",
    "哔 哩",
    "哔 哩 哔 哩",
    "FY",
    "fy",
    "FeiYun",
    "feiyun",
    "飞云"
  ],
  "ijk": [
    {
      "group": "软解码",
      "options": [
        {
          "category": 4,
          "name": "opensles",
          "value": "0"
        },
        {
          "category": 4,
          "name": "overlay-format",
          "value": "842225234"
        },
        {
          "category": 4,
          "name": "framedrop",
          "value": "1"
        },
        {
          "category": 4,
          "name": "soundtouch",
          "value": "1"
        },
        {
          "category": 4,
          "name": "start-on-prepared",
          "value": "1"
        },
        {
          "category": 1,
          "name": "http-detect-range-support",
          "value": "0"
        },
        {
          "category": 1,
          "name": "fflags",
          "value": "fastseek"
        },
        {
          "category": 2,
          "name": "skip_loop_filter",
          "value": "48"
        },
        {
          "category": 4,
          "name": "reconnect",
          "value": "1"
        },
        {
          "category": 4,
          "name": "max-buffer-size",
          "value": "5242880"
        },
        {
          "category": 4,
          "name": "enable-accurate-seek",
          "value": "0"
        },
        {
          "category": 4,
          "name": "mediacodec",
          "value": "0"
        },
        {
          "category": 4,
          "name": "mediacodec-auto-rotate",
          "value": "0"
        },
        {
          "category": 4,
          "name": "mediacodec-handle-resolution-change",
          "value": "0"
        },
        {
          "category": 4,
          "name": "mediacodec-hevc",
          "value": "0"
        },
        {
          "category": 1,
          "name": "dns_cache_timeout",
          "value": "600000000"
        }
      ]
    },
    {
      "group": "硬解码",
      "options": [
        {
          "category": 4,
          "name": "opensles",
          "value": "0"
        },
        {
          "category": 4,
          "name": "overlay-format",
          "value": "842225234"
        },
        {
          "category": 4,
          "name": "framedrop",
          "value": "1"
        },
        {
          "category": 4,
          "name": "soundtouch",
          "value": "1"
        },
        {
          "category": 4,
          "name": "start-on-prepared",
          "value": "1"
        },
        {
          "category": 1,
          "name": "http-detect-range-support",
          "value": "0"
        },
        {
          "category": 1,
          "name": "fflags",
          "value": "fastseek"
        },
        {
          "category": 2,
          "name": "skip_loop_filter",
          "value": "48"
        },
        {
          "category": 4,
          "name": "reconnect",
          "value": "1"
        },
        {
          "category": 4,
          "name": "max-buffer-size",
          "value": "5242880"
        },
        {
          "category": 4,
          "name": "enable-accurate-seek",
          "value": "0"
        },
        {
          "category": 4,
          "name": "mediacodec",
          "value": "1"
        },
        {
          "category": 4,
          "name": "mediacodec-auto-rotate",
          "value": "1"
        },
        {
          "category": 4,
          "name": "mediacodec-handle-resolution-change",
          "value": "1"
        },
        {
          "category": 4,
          "name": "mediacodec-hevc",
          "value": "1"
        },
        {
          "category": 1,
          "name": "dns_cache_timeout",
          "value": "600000000"
        }
      ]
    }
  ],
  "ads": [
    "wan.51img1.com",
    "iqiyi.hbuioo.com",
    "vip.ffzyad.com",
    "https://lf1-cdn-tos.bytegoofy.com/obj/tos-cn-i-dy/455ccf9e8ae744378118e4bd289288dd"
  ]
}
