{
  "aliToken": "db2e282507164ec292dae695574341af",
  "quarkCookie": "_UP_A4A_11_=wb966152710349a6aad410cc6889fa00; _UP_F7E_8D_=OU7RkS5Fl8Cm5vgbX6Ou1vpgmk9SoyENbptMZ4zcVg81NqyZbti1Bd3xsWuShyJIlG7KyI1iMaxLHpvA%2Fhicy1HUTu2LBlCPom4qTWeMFqCgN55FQx3lIyu%2B1OsWIKjG1w4pOGWcZjvuo4m2jHof9eRj66wpeTPO4r7NBD%2F4wEE0IpjIBHWretgcndtvmRjOSFdSeMqfcRGX%2F9JGGG%2BOk%2BHZ47Hvtvq2wLtchZ7GH2KZHru1xRmXkhzcEifL4FPEMbkMasJlcKZHIMvgEv52qikMgoJNpuLSbR7CDAbWfu7dldBvB7trVMH3IhYSoUw2AYTF7eNiF%2BU9DgASvb4Vfvosp%2BEFl7vny0TNscSZMOl8DcfixlwkYTpwSCY4564fHGA9cyxKste3pBRULSTR8JY7n3P6zUYaG%2BofGCzsMul3NGY6wl6lBISYJ2cSDS100Hjqhb3FcWuLwSSSdvGDxA%3D%3D; _UP_D_=pc; __pus=7158d88104002c642b3133dad5277a5eAAS5evd/I1WtMkjViVn6bAxV0RHOMRoDG6cY1Oht3HzY+Z0CjsQGeR23UsIlyz7MgC6jPuneCsGQGrcUVqzjO6He; __kp=f61d97d0-8751-11ef-869b-c5877b21c22e; __kps=AAQBg6ycCxAfucV6rBuEUkTp; __ktd=7TYQ7a0zri/z4luERo4htA==; __uid=AAQBg6ycCxAfucV6rBuEUkTp; __puus=3a61afce3506dd88fb77b2ee2be648b1AATfpAj7Dr7kezeXLINHs0S5O9QgXUeJ0lgk7OBYIeJkBYLgeYnERgPGJpdBden2dgPWvNfXwLgy0db18SoFp2PifZ7rvGjSJbZwZjiNijBaunxIpWpYJj40yMq30Lz4w+8cPjZXPSjyskFcnimnzDp7w7zbJCEh3neFcr2GgGCSadx/CWaJOYth9Rpd/cdZJjALHjaXPx1LiSiUKInXJmJU",
  "ucCookie": "__pus=3b4f572bb01a9b7ba1f7017e0ad2840aAAR3utNPO9zCN0UElYhOhbCWhKB24jwfnBTOWyyysBGpn6m9sIG8rRZveyHaObrAIwlVAEafXOxKpyT1P/g2rPCb; __kp=78e423a0-8752-11ef-a504-2f20c126d303; __kps=AAQudGxIiD5nXL2P3ZDVwOC0; __ktd=zGu59ALSZfUr93eraVX1IA==; __uid=AAQudGxIiD5nXL2P3ZDVwOC0; __puus=e2e4c81db44a9a9816bb323ebb89c29fAASjmKdU5gYEXEgCPa5aaFJewGYAKMNPPlP8ge3cUUd6Qk+dgFAeN48BVMrwbzVzvrBBz4Q227NUGRLZylZ/a259P+nWZ6XcKeB4/eCSBiZ+VpF1ES2udW5bi0waWJzoJnHBEgzShgQuKVpA4dYWsWERU+7sWMG2oA2DQVOUkXBd7a9aIqJT9hexgQ9lmt/xe4k=",
  "115Cookie": "UID=341887427_A1_1726396160;CID=7b91f88bcfae03821c7fb87090d1e64d;SEID=035d45970241a48059978559ba2ff5be3ddf9bbf9dcda992a596895c55688a2034676ad3a63d78dfc7ab7c3eb7a2596946c1a8ed0f2ebda2dd997647",
 "pwdRb115": "852963",
 "goServerUrl": "http://127.0.0.1:9966",
  "ydAuth": "",
  "proxy":"http://127.0.0.1:1072"
}