{
  "aliToken": "1515bcbc4f5b4b7cb2a6616131c92d63",
  "quarkCookie": "__pus=ccb1e05d170790676b2246d69f12764bAAR+lfNBlLX7xWAc6hpi4BHohle6OPvVQcDpa5WzHT8+xgdvYSljnmbzgtOtYQs4n21+aHnxcUZuXZFLyaXg3uOb",
  "ucCookie": "_UP_28A_52_=381; _UP_A4A_11_=wb9671152a6c40f9a17e3634dac42761; _UP_D_=pc; __pus=8daa3f49095bb74caf3d5f4c0529355fAAT3o6c8VH4vXsLA19fXyitd4Ck16KdyE8EIfsnVqQRpzV9Go1X7cwZY8nXEKmBmZ5W49XDgO8tTrKMn5yDb+RLZ; __kp=50a5ce70-3bf3-11ef-b573-fb75783e9817; __kps=AATRdjXx0krUvzCl2dETDUyB; __ktd=se0CKHDXXDRG3AV23TJO0Q==; __uid=AATRdjXx0krUvzCl2dETDUyB; tfstk=f4dma9tGDKWbALUtmQfjCjUvUmHRho11AhFOX1IZUgSSlGpv7hYwv3BaHmTNjdjyfqNAgmNNbet5Hi-OMlcMqsW6HGIAj1Y6x4nK9XLXl16ZvDhp9R8NU6_NbNrOUg7N9LxYhXLXlzyj4H0t9Rc_HxucbhWVU_7G4NP2bOlrrN7T0RP2bUul5gP40G5aU77FRrzqM9wVcCRvamD6E8mRgDOPotjg6iPM2QFdUM-Pq5oeZZqNYESu_5Sj75JHrEn0OUCX_HbpDbPDxF8BQTAg4Dj6ZUR2QUZmz6YkepBDEmPG2IQGL1Wu758lZgtHG6lUqa9ykdRXmPVNlIddIM6o756OaBBeLn4sRU5V7h6B6DNf0F8BOpCnik_DUefl4KwzLkTY1au9ZRw13a_lAc_ND00YxxQZr42U5t75uM3orRw13a_lv40uK56VPZSd.; __puus=f5360ac3dbae806103e0d2f2e8539510AAQ9YlTXdsaSBRDcS3b0pFaQ8mLaALGtZ8bIWlM0MxvFtLSVVInHwFfTgACM3PC0mXZkbtsrU/8iuy21W1cJWyvPbhkLM1vkp58lWxqc+zFRqGcqjCEuuPUtmn+V4p2K6C9iOXeYg1lk0Kb2ZKs3Ob05EyoMvt4KxLEGG1hAZNK/S55kHHvKFT0uKVR1XeXePe8=",
  "115Cookie": "UID=341887427_A1_1726396160;CID=7b91f88bcfae03821c7fb87090d1e64d;SEID=035d45970241a48059978559ba2ff5be3ddf9bbf9dcda992a596895c55688a2034676ad3a63d78dfc7ab7c3eb7a2596946c1a8ed0f2ebda2dd997647",
 "pwdRb115": "852963",
 "goServerUrl": "http://127.0.0.1:9966",
  "ydAuth": "",
  "proxy":"http://127.0.0.1:1072"
}