{
"token":"db2e282507164ec292dae695574341af",
"open_token":"eyJ0eXAiOiJKV1QiLCJhbGciOiJSUzI1NiJ9.eyJzdWIiOiJjY2I3MWIyNDQwN2Q0ODcxOGY4ODI3MzcyMjdjYTYwYiIsImF1ZCI6Ijc2OTE3Y2NjY2Q0NDQxYzM5NDU3YTA0ZjYwODRmYjJmIiwiZXhwIjoxNzM0NDU2NDU0LCJpYXQiOjE3MjY2ODA0NTQsImp0aSI6IjI2N2MyODg3YmRjMjQ0YjE5MGRlNTI1ODI2YjZlMjAzIn0.FiNc1YGzCAlFCJkwBHwODpBYshHRy54dHDs-Q3RpzFA1SjbAQv-Wptw4QX1HEFu8SdYXcF6n5ufqw4SER0Gr4Q",
"open_api_url":"postparam|http://api.extscreen.com/aliyundrive/token",
"oauth_client_id":"",
"oauth_client_secret":"",
"oauth_auth_url":"",
"oauth_refresh_url":"",
"thread_limit":64,
"is_vip":true,
"vip_thread_limit":64,
"vod_flags":"4kz|auto",
  
"aliproxy":"",
"aliproxy_url":"https://gitlab.com/hero1898/DSZB/-/raw/main/jar/aliproxy.gz;md5;1515cbc708b83e20252ab8aecf699fb7",
"proxy":"",
"danmu":true,
   
"quark_thread_limit":32,
"quark_is_vip":false,
"quark_is_guest":false,
"quark_vip_thread_limit":32,
"quark_flags":"4kz|auto",
"quark_danmu":true,
"quark_cookie":"jFIIz0GDySOjkedOf42rzzVX; b-user-id=17eb7f01-f2ec-5f54-db34-772dad5d7f9e; __wpkreporterwid_=59697796-1a61-4041-b4d5-b3350dae3dbd; _UP_A4A_11_=wb9051d2cff1469db574086dad1c0ebe; _UP_335_2B_=1; __itrace_wid=86a17bd0-f929-4b26-b424-e95a27757d3d; grey-id=ebfa25c5-19e9-fece-9ecc-224f9fe3ff23; grey-id.sig=uZI4uYPkVjLVBR6riCLzmBAUspeS3ubzpukSrQLOF8A; isQuark=false; isQuark.sig=DWPHMZYiiwQ-v58AbcP-rBdSIpzO8ZnrD67BdJuPatU; _UP_D_=pc; _UP_30C_6A_=st96162019ezuli2qmw1v9mrpx5mp5yf; _UP_TS_=sg1f5aa7a3299c8185a0294e1c0ab2490ed; _UP_E37_B7_=sg1f5aa7a3299c8185a0294e1c0ab2490ed; _UP_TG_=st96162019ezuli2qmw1v9mrpx5mp5yf; __pus=7db61e87f653f2bfa89484cd0064448fAATIuq3da7cNZQf4v9I1qfnuJnexlFKs+O8+HXQb1wX+yfjW3VKEUKaJmwIHgG0Ozlkb/7hlHfElOXR+v1XZsuDS; __kp=9d82f370-bc29-11ee-ae99-c1305733ec37; __kps=AARBupQgJh4gX+k5c0b4VfEk; __ktd=Op8FCbG2kRBIPYyVGBwlSA==; __uid=AARBupQgJh4gX+k5c0b4VfEk; __puus=7ec1693d1ce9805dfae85617bce01511AAQi2+AEEWTPvi4QvAnqjQNYJulX517ul82KI9LmSdH+LjlayXh3gtyO549Z0f2erxJw5GLb+kByU7lGLItU80QTjT0QkwIJYivK8axBG99Bb7/+SPEDxUgxVmiHtzWIG1W7P4K5ujd9NXkHlfQzKChT3SmZFcRjkNnNHWKjBNfwEtfG4+QIjmKKhmvm9O7AjbdqqW7Pky/A3PxJDby5AKSZ",
   
"uc_thread_limit":0,
"uc_is_vip":false,
"uc_vip_thread_limit":0,
"uc_flags":"4kz|auto",
"uc_cookie":"UDRIVE_TRANSFER_SESS=OSjfjvdvVB3kri7vp2BXpG6WunWopHbA8lVT_F8yDQYdEowzI1nlglQGy7EOaz-5yn6eN7KDu1t-mInU506W-XLLTDTRus8vItAwWAij4Sr3DG_ySs9AAP9BrW42zpCpBnOYEzayKDNI2pYAjY7qV-PrjY6_LSPUJ1qzX5LsVgRlEKcNtWqEYJt2SodKNdTX; b-user-id=f1dc02a4-9ee3-d795-9d26-c7e924ba7053; __itrace_wid=7734524e-6038-42d6-20cb-b057287b5201; ctoken=Mv6cn7-WszPk3sWQE-UIw9no; __pus=ad2f8cf72a96b73a0d704a8896962811AASxaEfeCfUomBN4OSoWxId9/dEqLiN0MjO3j6HyvFgEZEhaCU1wMF/TuWPc+7cfCtaCx9PXIhv+FI4JcysD3a2e; __kp=ca78c2e0-eb10-11ee-9aaf-d970a5cebce3; __kps=AARaPsy19sE3hhs3YqPg7HCa; __ktd=DLqnFPYlfx+M0VDP+KMRtQ==; __uid=AARaPsy19sE3hhs3YqPg7HCa; __puus=ba7a89531da75cf0ad3dc6e1f0069699AATCov9Z78OJHuGuNarL9J5TVmGD97bKg4VyzRwbLtttHockfYa3w6Fp1O9gHt3yeTiDXIa14RObzMbazQvadaNTMgu/chDT3IxJT5tqUNxMVjPuzwllfx/GJp0sILDtyvADfaTCoPEsXugsHPVUp7CKgB13sDfvdJuudgP2JAYyXKn1ydS42/36G9aAaZgubuU=",
 
"thunder_thread_limit":2,
"thunder_is_vip":false,
"thunder_vip_thread_limit":2,
"thunder_flags":"4k|4kz|auto",
"libxl_url":"./libxl_thunder_sdk.so",
  
"thunder_username":"+86 18052000426",
"thunder_password":"Zz57115160",
"thunder_captchatoken":"ck0.tb63-zm7Z5AqPPGi0jkbkCshyUhb1h7W_uDPIbmGiJkAgcuEkcvoL83R8fdNXFnWvfm5AzDoOb9gVVrGP6C112WulhYQL8TPvq-xGot7qyZUWU4K3xCM7n34v9tweaceuPcrznhomxfoo-ejZLJ3ZFWQ1VM1qLC-GPh9_RogRGN-wPKwM8tqeyUQQHJOjMgxiJUadgQoUyjD571Z7dl75A",

"yd_auth":"Basic cGM6MTgwNTIwMDA0MjY6MzJEbHZ2cGl8MXxSQ1N8MTcxMjEyODczODM1N3xsTXFkR21zMGZCM3A4Vi56VGhKUnp4Qnl3RWpzYnBXbkhyQ0NLemNMZXVhSjYxUFJ6Y3RxRzlQMWNnMWdXUG45RDJhOVNHSTVXVnNOT25COXk2a0NMeUR4bFZENXJORWZsUFQ5bDJJMGVMNHhvU2Z4Sm5sUzBocVBjMVhMbmw2UFNMUTl3cnFiZ0swQmRmWHlad0RyR29CMkJZM3QycHI2Rmw2VFJxU3RWU1Ut",
"yd_thread_limit":4,
"yd_flags":"auto|4kz",
"yd_danmu":true,
  
"pikpak_username":"yxy20150427@gmail.com",
"pikpak_password":"Zz123456789",
"pikpak_flags":"4k|auto",
"pikpak_thread_limit":2,
"pikpak_vip_thread_limit":2,
"pikpak_proxy":"socks5://127.0.0.1:10072",
"pikpak_proxy_onlyapi":false,
"pikpak_danmu":true,

  
"youtube_proxy":"127.0.0.1:10072", 
  
"wgcf_key":"eLPYOt5B+H9sQQrg6tbx13pPt3I5B/lo/LfP/NcU83s=",
"wgcf_key2":"WFUEo5mjfMEunjT0i9TL2zzYK8b81alg9kE0MG5gAEQ=",
"wgcf_ipport":"162.159.195.145:8319",
"wgcf_xray_url":"./xray.gz;md5;2c2fb3b00c2763aae8b1ba789c09c453",
"wgcf_geoip_url":"./geoip.dat.gz;md5;edfbb800a397674bee4a9460adde05f0",
"wgcf_json_url":"./wgcf.json",
"wgcf_vless_id":"add25d41-b537-4f72-bf88-15602d0aad00",
"wgcf_vless_optname":"ca.337898581.xyz:8880",
"wgcf_vless_worker":"yg.337898581.xyz",
"wgcf_vless_path":"/?ed=2560",
"wgcf_vless_protocol":"vless",
"wgcf_vless_network":"ws",
"wgcf_vless_tls":false,

  
"singbox_url":"./sing-box.gz;md5;1743280c8d54c17cde83e94d9cf3cbcf",
"singbox_subscribe_url":"http://sub.xn--54qu5qypuo1o.xn--fiqs8s/api/v1/client/subscribe?token=8cfd1efb341eddefcbf9f8ce5e1543d7∣http://api.scyu.xyz/sub?token=IxWNfdCuIUWE0Z7QN5IGTA&tag=clash",
"singbox_clash2singbox_url":"./clash2singbox.gz;md5;df0a588d890d33743d3b1318fdf230e1",
"singbox_template_url":"./singbox.json",
  
  
"pan115_cookie":"UID=360718590_A1_1723083373; CID=9f30b09d801dd89acebb075256a92fa1; SEID=4a4fe2bd0268c8e2ba32972b82119a24cd7606b37733a3eeec95e11e09339779e2554f2b76b9d2b91887113cf9427009db047e992ddc985d6f76222d",
"pan115_thread_limit":2,
"pan115_vip_thread_limit":2,
"pan115_is_vip":false,
"pan115_flags":"4kz",
"pan115_auto_delete":true,
"pan115_delete_code":"123456",
"pan_order":"quark|ali|115|uc|thunder|yd|pikpak"  
}