{"spider":"https://codeberg.org/Pizazz/TVBox_warehouse/raw/branch/main/spider.jar;md5;d1fa24b46f218f455bc3f4b948fd457e",
"wallpaper":"https://api.likepoems.com/img/bing",
"sites":
	[{"key":"豆瓣","name":"云盘｜首页","type":3,"api":"csp_Douban","searchable":0},
	{"key":"阿里云盘登录","name":"云盘｜登录","type":3,"api":"csp_AliYunPan","searchable":0,"quickSearch":0,"filterable":0,"changeable":0,"ext":"http://127.0.0.1:9978/file/TVBox/token.txt"},
	{"key":"配置中心","name":"云盘｜配置","type":3,"api":"csp_Config","searchable":0,"changeable":0,"style":{"type":"rect","ratio":1.597},"jar":"https://codeberg.org/Pizazz/TVBox_warehouse/raw/branch/main/danmu.jar;md5;02d800e8b76465acdd1f989d6b7db868"},
	{"key":"玩偶弹幕","name":"弹幕｜玩偶","type":3,"api":"csp_Wogg","searchable":1,"quickSearch":1,"filterable":1,"ext":{"filter":"./DM/玩偶哥哥.json","token":"http://127.0.0.1:9978/file/TVBox/token.txt","danmu":true},"jar":"https://codeberg.org/Pizazz/TVBox_warehouse/raw/branch/main/danmu.jar;md5;02d800e8b76465acdd1f989d6b7db868"},
	{"key":"搜索弹幕","name":"弹幕｜搜索","type":3,"api":"csp_PanSearch","searchable":1,"filterable":0,"changeable":1,"ext":{"token":"http://127.0.0.1:9978/file/TVBox/token.txt","danmu":true},"jar":"https://codeberg.org/Pizazz/TVBox_warehouse/raw/branch/main/danmu.jar;md5;02d800e8b76465acdd1f989d6b7db868"},
	{"key":"Upys","name":"弹幕｜云云","type":3,"api":"csp_Upys","searchable":1,"filterable":0,"changeable":1,"ext":{"token":"http://127.0.0.1:9978/file/TVBox/token.txt","danmu":true},"jar":"https://codeberg.org/Pizazz/TVBox_warehouse/raw/branch/main/danmu.jar;md5;02d800e8b76465acdd1f989d6b7db868"},
	{"key":"UpYun","name":"弹幕｜云搜","type":3,"api":"csp_UpYun","searchable":1,"filterable":0,"changeable":1,"ext":{"token":"http://127.0.0.1:9978/file/TVBox/token.txt","danmu":true},"jar":"https://codeberg.org/Pizazz/TVBox_warehouse/raw/branch/main/danmu.jar;md5;02d800e8b76465acdd1f989d6b7db868"},
	{"key":"盘搜弹幕","name":"弹幕｜盘搜","type":3,"api":"csp_PanSou","searchable":1,"filterable":0,"changeable":1,"ext":{"token":"http://127.0.0.1:9978/file/TVBox/token.txt","danmu":true},"jar":"https://codeberg.org/Pizazz/TVBox_warehouse/raw/branch/main/danmu.jar;md5;02d800e8b76465acdd1f989d6b7db868"},
	{"key":"易搜弹幕","name":"弹幕｜易搜","type":3,"api":"csp_YiSo","searchable":1,"filterable":0,"changeable":1,"ext":{"token":"http://127.0.0.1:9978/file/TVBox/token.txt","danmu":true},"jar":"https://codeberg.org/Pizazz/TVBox_warehouse/raw/branch/main/danmu.jar;md5;02d800e8b76465acdd1f989d6b7db868"},
	{"key":"云盘弹幕","name":"弹幕｜云盘","type":3,"api":"csp_Yunpan4k","searchable":1,"filterable":0,"changeable":1,"ext":{"token":"http://127.0.0.1:9978/file/TVBox/token.txt","danmu":true},"jar":"https://codeberg.org/Pizazz/TVBox_warehouse/raw/branch/main/danmu.jar;md5;02d800e8b76465acdd1f989d6b7db868"},
	{"key":"玩偶哥哥","name":"云盘｜玩偶","type":3,"api":"csp_XYQHikerAL","searchable":1,"quickSearch":1,"filterable":1,"ext":"./XYQHiker/玩偶哥哥.json"},
	{"key":"云盘搜索","name":"云盘｜搜索","type":3,"api":"csp_XYQHiker","searchable":1,"quickSearch":1,"filterable":1,"ext":"./XYQHiker/云盘搜索.json"},
	{"key":"Upyunso","name":"云盘｜云搜","type":3,"api":"csp_Upyunso","searchable":1,"quickSearch":1,"filterable":0,"ext":"http://127.0.0.1:9978/file/TVBox/token.txt"},
	{"key":"AliPS","name":"云盘｜盘搜","type":3,"api":"csp_AliPS","searchable":1,"quickSearch":1,"filterable":0,"ext":"http://127.0.0.1:9978/file/TVBox/token.txt"},
	{"key":"Yisou","name":"云盘｜易搜","type":3,"api":"csp_Yisou","searchable":1,"quickSearch":1,"filterable":0,"ext":"http://127.0.0.1:9978/file/TVBox/token.txt"},
	{"key":"我的小站","name":"云盘｜小站","type":3,"api":"csp_XYQHikerAL","searchable":1,"quickSearch":1,"filterable":1,"ext":"./XYQHiker/我的小站.json"},
	{"key":"阿里苏苏","name":"云盘｜苏苏","type":3,"api":"csp_XYQHikerAL","searchable":1,"quickSearch":1,"filterable":1,"ext":"./XYQHiker/阿里苏苏.json"},
	{"key":"云盘论坛","name":"云盘｜论坛","type":3,"api":"csp_XYQHikerAL","searchable":1,"quickSearch":1,"filterable":1,"ext":"./XYQHiker/云盘论坛.json"},
	{"key":"云盘资源","name":"云盘｜资源","type":3,"api":"csp_XYQHikerAL","searchable":1,"quickSearch":1,"filterable":1,"ext":"./XYQHiker/云盘资源.json"},
	{"key":"云盘资源分享","name":"云盘｜分享","type":3,"api":"csp_XYQHikerAL","searchable":1,"quickSearch":1,"filterable":1,"ext":"./XYQHiker/云盘资源分享.json"},
	{"key":"土拨鼠搜索","name":"云盘｜土拨鼠","type":3,"api":"csp_XYQHiker","searchable":1,"quickSearch":1,"filterable":1,"ext":"./XYQHiker/土拨鼠搜索.json"},
	{"key":"豆豆飞搜索","name":"云盘｜豆豆飞","type":3,"api":"csp_XYQHikerAL","searchable":1,"quickSearch":1,"filterable":1,"ext":"./XYQHiker/豆豆飞搜索.json"},
	{"key":"阿里云盘网","name":"云盘｜云盘网","type":3,"api":"csp_XYQHikerAL","searchable":1,"quickSearch":1,"filterable":1,"ext":"./XYQHiker/阿里云盘网.json"},
	{"key":"Gitcafe","name":"云盘｜小纸条","type":3,"api":"csp_Gitcafe","searchable":1,"quickSearch":1,"filterable":1,"ext":"http://127.0.0.1:9978/file/TVBox/token.txt"},
	{"key":"夸克玩偶弹幕","name":"夸克｜玩偶","type":3,"api":"csp_Wobg","searchable":1,"quickSearch":1,"filterable":1,"changeable":1,"ext":{"token":"http://127.0.0.1:9978/file/TVBox/token.txt","cookie":"http://127.0.0.1:9978/file/TVBox/quark.txt","danmu":true},"jar":"https://codeberg.org/Pizazz/TVBox_warehouse/raw/branch/main/danmu.jar;md5;02d800e8b76465acdd1f989d6b7db868"},
	{"key":"夸克盘搜弹幕","name":"夸克｜盘搜","type":3,"api":"csp_QuPanSou","searchable":1,"quickSearch":1,"filterable":1,"changeable":1,"ext":{"cookie":"http://127.0.0.1:9978/file/TVBox/quark.txt","danmu":true},"jar":"https://codeberg.org/Pizazz/TVBox_warehouse/raw/branch/main/danmu.jar;md5;02d800e8b76465acdd1f989d6b7db868"},
	{"key":"趣盘搜弹幕","name":"夸克｜趣盘搜","type":3,"api":"csp_QuPanSou","searchable":1,"quickSearch":1,"filterable":1,"changeable":1,"ext":{"cookie":"http://127.0.0.1:9978/file/TVBox/quark.txt","danmu":true},"jar":"https://codeberg.org/Pizazz/TVBox_warehouse/raw/branch/main/danmu.jar;md5;02d800e8b76465acdd1f989d6b7db868"}],
"doh":
	[{"name":"Google","url":"https://dns.google/dns-query","ips":["8.8.4.4","8.8.8.8"]},
	{"name":"Cloudflare","url":"https://cloudflare-dns.com/dns-query","ips":["1.1.1.1","1.0.0.1","2606:4700:4700::1111","2606:4700:4700::1001"]},
	{"name":"AdGuard","url":"https://dns.adguard.com/dns-query","ips":["94.140.14.140","94.140.14.141"]},
	{"name":"DNSWatch","url":"https://resolver2.dns.watch/dns-query","ips":["84.200.69.80","84.200.70.40"]},
	{"name":"Quad9","url":"https://dns.quad9.net/dns-quer","ips":["9.9.9.9","149.112.112.112"]}],
"lives":
	[{"name":"live","type":0,"url":"https://codeberg.org/Pizazz/TVBox_warehouse/raw/branch/main/live.txt","playerType":1,"epg":"http://epg.112114.xyz/?ch={name}&date={date}","logo":"https://epg.112114.xyz/logo/{name}.png"}],
"ijk":
	[{"group":"软解码","options":
		[{"category":4,"name":"opensles","value":"0"},
		{"category":4,"name":"overlay-format","value":"842225234"},
		{"category":4,"name":"framedrop","value":"1"},
		{"category":4,"name":"soundtouch","value":"1"},
		{"category":4,"name":"start-on-prepared","value":"1"},
		{"category":1,"name":"http-detect-range-support","value":"0"},
		{"category":1,"name":"fflags","value":"fastseek"},
		{"category":2,"name":"skip_loop_filter","value":"48"},
		{"category":4,"name":"reconnect","value":"1"},
		{"category":4,"name":"max-buffer-size","value":"5242880"},
		{"category":4,"name":"enable-accurate-seek","value":"0"},
		{"category":4,"name":"mediacodec","value":"0"},
		{"category":4,"name":"mediacodec-auto-rotate","value":"0"},
		{"category":4,"name":"mediacodec-handle-resolution-change","value":"0"},
		{"category":4,"name":"mediacodec-hevc","value":"0"},
		{"category":1,"name":"dns_cache_timeout","value":"600000000"}]},
	{"group":"硬解码","options":
		[{"category":4,"name":"opensles","value":"0"},
		{"category":4,"name":"overlay-format","value":"842225234"},
		{"category":4,"name":"framedrop","value":"1"},
		{"category":4,"name":"soundtouch","value":"1"},
		{"category":4,"name":"start-on-prepared","value":"1"},
		{"category":1,"name":"http-detect-range-support","value":"0"},
		{"category":1,"name":"fflags","value":"fastseek"},
		{"category":2,"name":"skip_loop_filter","value":"48"},
		{"category":4,"name":"reconnect","value":"1"},
		{"category":4,"name":"max-buffer-size","value":"5242880"},
		{"category":4,"name":"enable-accurate-seek","value":"0"},
		{"category":4,"name":"mediacodec","value":"1"},
		{"category":4,"name":"mediacodec-auto-rotate","value":"1"},
		{"category":4,"name":"mediacodec-handle-resolution-change","value":"1"},
		{"category":4,"name":"mediacodec-hevc","value":"1"},
		{"category":1,"name":"dns_cache_timeout","value":"600000000"}]}]
}
